{
 "SoundBanksInfo": {
  "Platform": "Android",
  "BasePlatform": "Android",
  "SchemaVersion": "12",
  "SoundbankVersion": "140",
  "RootPaths": {
   "ProjectRoot": "D:\\DateNight_Project\\DateNight_Wwise\\",
   "SourceFilesRoot": "D:\\DateNight_Project\\DateNight_Wwise\\.cache\\Android\\",
   "SoundBanksRoot": "D:\\DateNight_Project\\datenight\\Assets\\StreamingAssets\\Audio\\GeneratedSoundBanks\\Android\\",
   "ExternalSourcesInputFile": "",
   "ExternalSourcesOutputRoot": "D:\\DateNight_Project\\DateNight_Wwise\\GeneratedSoundBanks\\Android"
  },
  "SoundBanks": [
   {
    "Id": "1355168291",
    "GUID": "{701ECBBD-9C7B-4030-8CDB-749EE5D1C7B9}",
    "Language": "SFX",
    "Hash": "969404015",
    "ObjectPath": "Init",
    "ShortName": "Init",
    "Path": "Init.bnk",
    "IncludedAuxBusses": [
     {
      "Id": "1682361562",
      "Name": "rvb_chamber",
      "ObjectPath": "\\Master-Mixer Hierarchy\\DateNight\\Master Audio Bus\\Reverb\\rvb_chamber",
      "GUID": "{92287B53-A87D-4B6B-90BE-DE4133117E31}"
     },
     {
      "Id": "1883919640",
      "Name": "rvb_outdoor",
      "ObjectPath": "\\Master-Mixer Hierarchy\\DateNight\\Master Audio Bus\\Reverb\\rvb_outdoor",
      "GUID": "{14FB2FA9-03FD-47EA-9678-DB353DCBDD5E}"
     },
     {
      "Id": "2603992486",
      "Name": "rvb_hosptital",
      "ObjectPath": "\\Master-Mixer Hierarchy\\DateNight\\Master Audio Bus\\Reverb\\rvb_hosptital",
      "GUID": "{90B7898B-1746-419A-A1F8-687DC8FB4972}"
     },
     {
      "Id": "3148728066",
      "Name": "rvb_corridor",
      "ObjectPath": "\\Master-Mixer Hierarchy\\DateNight\\Master Audio Bus\\Reverb\\rvb_corridor",
      "GUID": "{C3784225-8057-4083-BE93-62647AA5A8CE}"
     },
     {
      "Id": "4180545973",
      "Name": "rvb_hall",
      "ObjectPath": "\\Master-Mixer Hierarchy\\DateNight\\Master Audio Bus\\Reverb\\rvb_hall",
      "GUID": "{5709A6EC-C7AB-42B9-A3DA-458F39F29D69}"
     }
    ],
    "GameParameters": [
     {
      "Id": "1006694123",
      "Name": "Music_Volume",
      "ObjectPath": "\\Game Parameters\\Default Work Unit\\Slider_Volume\\Music_Volume",
      "GUID": "{0201F3D3-5301-4B71-B408-5DF9E3E2E12E}"
     },
     {
      "Id": "1564184899",
      "Name": "SFX_Volume",
      "ObjectPath": "\\Game Parameters\\Default Work Unit\\Slider_Volume\\SFX_Volume",
      "GUID": "{BC884786-B2A6-404F-BFCE-CA8EAD14A5F9}"
     },
     {
      "Id": "4143275766",
      "Name": "Reverb_Volume",
      "ObjectPath": "\\Game Parameters\\Default Work Unit\\Slider_Volume\\Reverb_Volume",
      "GUID": "{28C69A72-9956-4751-944C-CA08B963EEF1}"
     },
     {
      "Id": "4179668880",
      "Name": "Master_Volume",
      "ObjectPath": "\\Game Parameters\\Default Work Unit\\Slider_Volume\\Master_Volume",
      "GUID": "{ED71D787-4D11-42D8-A554-158C5FE6F4DE}"
     },
     {
      "Id": "4287144566",
      "Name": "Ambiance_Volume",
      "ObjectPath": "\\Game Parameters\\Default Work Unit\\Slider_Volume\\Ambiance_Volume",
      "GUID": "{60BAC45A-5231-4538-A864-CE8B1D02F066}"
     }
    ]
   }
  ]
 }
}