%YAML 1.1
%TAG !u! tag:unity3d.com,2011:
--- !u!1001 &1962846274295683631
PrefabInstance:
  m_ObjectHideFlags: 0
  serializedVersion: 2
  m_Modification:
    m_TransformParent: {fileID: 6360002850126753837}
    m_Modifications:
    - target: {fileID: -8679921383154817045, guid: 2dcb814fa11f2354ea69eb6db765aa32,
        type: 3}
      propertyPath: m_RootOrder
      value: 2
      objectReference: {fileID: 0}
    - target: {fileID: -8679921383154817045, guid: 2dcb814fa11f2354ea69eb6db765aa32,
        type: 3}
      propertyPath: m_LocalPosition.x
      value: -0.008213043
      objectReference: {fileID: 0}
    - target: {fileID: -8679921383154817045, guid: 2dcb814fa11f2354ea69eb6db765aa32,
        type: 3}
      propertyPath: m_LocalPosition.y
      value: 0
      objectReference: {fileID: 0}
    - target: {fileID: -8679921383154817045, guid: 2dcb814fa11f2354ea69eb6db765aa32,
        type: 3}
      propertyPath: m_LocalPosition.z
      value: -0.027999878
      objectReference: {fileID: 0}
    - target: {fileID: -8679921383154817045, guid: 2dcb814fa11f2354ea69eb6db765aa32,
        type: 3}
      propertyPath: m_LocalRotation.w
      value: 1
      objectReference: {fileID: 0}
    - target: {fileID: -8679921383154817045, guid: 2dcb814fa11f2354ea69eb6db765aa32,
        type: 3}
      propertyPath: m_LocalRotation.x
      value: -0
      objectReference: {fileID: 0}
    - target: {fileID: -8679921383154817045, guid: 2dcb814fa11f2354ea69eb6db765aa32,
        type: 3}
      propertyPath: m_LocalRotation.y
      value: -0
      objectReference: {fileID: 0}
    - target: {fileID: -8679921383154817045, guid: 2dcb814fa11f2354ea69eb6db765aa32,
        type: 3}
      propertyPath: m_LocalRotation.z
      value: -0
      objectReference: {fileID: 0}
    - target: {fileID: -8679921383154817045, guid: 2dcb814fa11f2354ea69eb6db765aa32,
        type: 3}
      propertyPath: m_LocalEulerAnglesHint.x
      value: 0
      objectReference: {fileID: 0}
    - target: {fileID: -8679921383154817045, guid: 2dcb814fa11f2354ea69eb6db765aa32,
        type: 3}
      propertyPath: m_LocalEulerAnglesHint.y
      value: 0
      objectReference: {fileID: 0}
    - target: {fileID: -8679921383154817045, guid: 2dcb814fa11f2354ea69eb6db765aa32,
        type: 3}
      propertyPath: m_LocalEulerAnglesHint.z
      value: 0
      objectReference: {fileID: 0}
    - target: {fileID: -6490301462628166895, guid: 2dcb814fa11f2354ea69eb6db765aa32,
        type: 3}
      propertyPath: m_CastShadows
      value: 2
      objectReference: {fileID: 0}
    - target: {fileID: -6490301462628166895, guid: 2dcb814fa11f2354ea69eb6db765aa32,
        type: 3}
      propertyPath: m_Materials.Array.data[0]
      value: 
      objectReference: {fileID: 2100000, guid: 8a8c6ac2ff4a25d44bf6332821613dc5, type: 2}
    - target: {fileID: -5472361726170752067, guid: 2dcb814fa11f2354ea69eb6db765aa32,
        type: 3}
      propertyPath: m_StaticEditorFlags
      value: 2147483647
      objectReference: {fileID: 0}
    - target: {fileID: 919132149155446097, guid: 2dcb814fa11f2354ea69eb6db765aa32,
        type: 3}
      propertyPath: m_Name
      value: cadre_porte_simple_chambre
      objectReference: {fileID: 0}
    - target: {fileID: 919132149155446097, guid: 2dcb814fa11f2354ea69eb6db765aa32,
        type: 3}
      propertyPath: m_StaticEditorFlags
      value: 2147483647
      objectReference: {fileID: 0}
    m_RemovedComponents: []
  m_SourcePrefab: {fileID: 100100000, guid: 2dcb814fa11f2354ea69eb6db765aa32, type: 3}
--- !u!1001 &6902326734322636742
PrefabInstance:
  m_ObjectHideFlags: 0
  serializedVersion: 2
  m_Modification:
    m_TransformParent: {fileID: 0}
    m_Modifications:
    - target: {fileID: -8679921383154817045, guid: 340b232848d07ce4bbfe14e39dca8f64,
        type: 3}
      propertyPath: m_RootOrder
      value: 0
      objectReference: {fileID: 0}
    - target: {fileID: -8679921383154817045, guid: 340b232848d07ce4bbfe14e39dca8f64,
        type: 3}
      propertyPath: m_LocalPosition.x
      value: 11
      objectReference: {fileID: 0}
    - target: {fileID: -8679921383154817045, guid: 340b232848d07ce4bbfe14e39dca8f64,
        type: 3}
      propertyPath: m_LocalPosition.y
      value: 0
      objectReference: {fileID: 0}
    - target: {fileID: -8679921383154817045, guid: 340b232848d07ce4bbfe14e39dca8f64,
        type: 3}
      propertyPath: m_LocalPosition.z
      value: -7.942
      objectReference: {fileID: 0}
    - target: {fileID: -8679921383154817045, guid: 340b232848d07ce4bbfe14e39dca8f64,
        type: 3}
      propertyPath: m_LocalRotation.w
      value: 1
      objectReference: {fileID: 0}
    - target: {fileID: -8679921383154817045, guid: 340b232848d07ce4bbfe14e39dca8f64,
        type: 3}
      propertyPath: m_LocalRotation.x
      value: -0
      objectReference: {fileID: 0}
    - target: {fileID: -8679921383154817045, guid: 340b232848d07ce4bbfe14e39dca8f64,
        type: 3}
      propertyPath: m_LocalRotation.y
      value: -0
      objectReference: {fileID: 0}
    - target: {fileID: -8679921383154817045, guid: 340b232848d07ce4bbfe14e39dca8f64,
        type: 3}
      propertyPath: m_LocalRotation.z
      value: -0
      objectReference: {fileID: 0}
    - target: {fileID: -8679921383154817045, guid: 340b232848d07ce4bbfe14e39dca8f64,
        type: 3}
      propertyPath: m_LocalEulerAnglesHint.x
      value: 0
      objectReference: {fileID: 0}
    - target: {fileID: -8679921383154817045, guid: 340b232848d07ce4bbfe14e39dca8f64,
        type: 3}
      propertyPath: m_LocalEulerAnglesHint.y
      value: 0
      objectReference: {fileID: 0}
    - target: {fileID: -8679921383154817045, guid: 340b232848d07ce4bbfe14e39dca8f64,
        type: 3}
      propertyPath: m_LocalEulerAnglesHint.z
      value: 0
      objectReference: {fileID: 0}
    - target: {fileID: -7503486355487806274, guid: 340b232848d07ce4bbfe14e39dca8f64,
        type: 3}
      propertyPath: m_IsActive
      value: 0
      objectReference: {fileID: 0}
    - target: {fileID: -7503486355487806274, guid: 340b232848d07ce4bbfe14e39dca8f64,
        type: 3}
      propertyPath: m_StaticEditorFlags
      value: 2147483647
      objectReference: {fileID: 0}
    - target: {fileID: 919132149155446097, guid: 340b232848d07ce4bbfe14e39dca8f64,
        type: 3}
      propertyPath: m_Name
      value: mur_chambre_porte_simple Variant
      objectReference: {fileID: 0}
    - target: {fileID: 919132149155446097, guid: 340b232848d07ce4bbfe14e39dca8f64,
        type: 3}
      propertyPath: m_StaticEditorFlags
      value: 2147483647
      objectReference: {fileID: 0}
    - target: {fileID: 6692194811628933877, guid: 340b232848d07ce4bbfe14e39dca8f64,
        type: 3}
      propertyPath: m_CastShadows
      value: 2
      objectReference: {fileID: 0}
    - target: {fileID: 6692194811628933877, guid: 340b232848d07ce4bbfe14e39dca8f64,
        type: 3}
      propertyPath: m_Materials.Array.data[0]
      value: 
      objectReference: {fileID: 2100000, guid: 8a8c6ac2ff4a25d44bf6332821613dc5, type: 2}
    m_RemovedComponents: []
  m_SourcePrefab: {fileID: 100100000, guid: 340b232848d07ce4bbfe14e39dca8f64, type: 3}
--- !u!4 &6360002850126753837 stripped
Transform:
  m_CorrespondingSourceObject: {fileID: -8679921383154817045, guid: 340b232848d07ce4bbfe14e39dca8f64,
    type: 3}
  m_PrefabInstance: {fileID: 6902326734322636742}
  m_PrefabAsset: {fileID: 0}
--- !u!1001 &6963352860477698813
PrefabInstance:
  m_ObjectHideFlags: 0
  serializedVersion: 2
  m_Modification:
    m_TransformParent: {fileID: 6360002850126753837}
    m_Modifications:
    - target: {fileID: -8679921383154817045, guid: 40ecdc98076052d4f88b3f44bdb04c3d,
        type: 3}
      propertyPath: m_RootOrder
      value: 3
      objectReference: {fileID: 0}
    - target: {fileID: -8679921383154817045, guid: 40ecdc98076052d4f88b3f44bdb04c3d,
        type: 3}
      propertyPath: m_LocalPosition.x
      value: 0
      objectReference: {fileID: 0}
    - target: {fileID: -8679921383154817045, guid: 40ecdc98076052d4f88b3f44bdb04c3d,
        type: 3}
      propertyPath: m_LocalPosition.y
      value: 0
      objectReference: {fileID: 0}
    - target: {fileID: -8679921383154817045, guid: 40ecdc98076052d4f88b3f44bdb04c3d,
        type: 3}
      propertyPath: m_LocalPosition.z
      value: -0.022
      objectReference: {fileID: 0}
    - target: {fileID: -8679921383154817045, guid: 40ecdc98076052d4f88b3f44bdb04c3d,
        type: 3}
      propertyPath: m_LocalRotation.w
      value: 1
      objectReference: {fileID: 0}
    - target: {fileID: -8679921383154817045, guid: 40ecdc98076052d4f88b3f44bdb04c3d,
        type: 3}
      propertyPath: m_LocalRotation.x
      value: -0
      objectReference: {fileID: 0}
    - target: {fileID: -8679921383154817045, guid: 40ecdc98076052d4f88b3f44bdb04c3d,
        type: 3}
      propertyPath: m_LocalRotation.y
      value: -0
      objectReference: {fileID: 0}
    - target: {fileID: -8679921383154817045, guid: 40ecdc98076052d4f88b3f44bdb04c3d,
        type: 3}
      propertyPath: m_LocalRotation.z
      value: -0
      objectReference: {fileID: 0}
    - target: {fileID: -8679921383154817045, guid: 40ecdc98076052d4f88b3f44bdb04c3d,
        type: 3}
      propertyPath: m_LocalEulerAnglesHint.x
      value: 0
      objectReference: {fileID: 0}
    - target: {fileID: -8679921383154817045, guid: 40ecdc98076052d4f88b3f44bdb04c3d,
        type: 3}
      propertyPath: m_LocalEulerAnglesHint.y
      value: 0
      objectReference: {fileID: 0}
    - target: {fileID: -8679921383154817045, guid: 40ecdc98076052d4f88b3f44bdb04c3d,
        type: 3}
      propertyPath: m_LocalEulerAnglesHint.z
      value: 0
      objectReference: {fileID: 0}
    - target: {fileID: 919132149155446097, guid: 40ecdc98076052d4f88b3f44bdb04c3d,
        type: 3}
      propertyPath: m_Name
      value: porte_simple_chambre
      objectReference: {fileID: 0}
    - target: {fileID: 919132149155446097, guid: 40ecdc98076052d4f88b3f44bdb04c3d,
        type: 3}
      propertyPath: m_IsActive
      value: 0
      objectReference: {fileID: 0}
    - target: {fileID: 919132149155446097, guid: 40ecdc98076052d4f88b3f44bdb04c3d,
        type: 3}
      propertyPath: m_StaticEditorFlags
      value: 2147483647
      objectReference: {fileID: 0}
    - target: {fileID: 6862011352732974127, guid: 40ecdc98076052d4f88b3f44bdb04c3d,
        type: 3}
      propertyPath: m_CastShadows
      value: 2
      objectReference: {fileID: 0}
    - target: {fileID: 6862011352732974127, guid: 40ecdc98076052d4f88b3f44bdb04c3d,
        type: 3}
      propertyPath: m_Materials.Array.data[0]
      value: 
      objectReference: {fileID: 2100000, guid: c77572fe7256d1146baf8cf70ac10f7b, type: 2}
    - target: {fileID: 8121287120935858581, guid: 40ecdc98076052d4f88b3f44bdb04c3d,
        type: 3}
      propertyPath: m_StaticEditorFlags
      value: 0
      objectReference: {fileID: 0}
    m_RemovedComponents: []
  m_SourcePrefab: {fileID: 100100000, guid: 40ecdc98076052d4f88b3f44bdb04c3d, type: 3}
--- !u!1001 &7807537899749959881
PrefabInstance:
  m_ObjectHideFlags: 0
  serializedVersion: 2
  m_Modification:
    m_TransformParent: {fileID: 6360002850126753837}
    m_Modifications:
    - target: {fileID: -8679921383154817045, guid: 6293d6c45dbd03447a16b14eb673c0f1,
        type: 3}
      propertyPath: m_RootOrder
      value: 1
      objectReference: {fileID: 0}
    - target: {fileID: -8679921383154817045, guid: 6293d6c45dbd03447a16b14eb673c0f1,
        type: 3}
      propertyPath: m_LocalPosition.x
      value: -0
      objectReference: {fileID: 0}
    - target: {fileID: -8679921383154817045, guid: 6293d6c45dbd03447a16b14eb673c0f1,
        type: 3}
      propertyPath: m_LocalPosition.y
      value: 0
      objectReference: {fileID: 0}
    - target: {fileID: -8679921383154817045, guid: 6293d6c45dbd03447a16b14eb673c0f1,
        type: 3}
      propertyPath: m_LocalPosition.z
      value: 0
      objectReference: {fileID: 0}
    - target: {fileID: -8679921383154817045, guid: 6293d6c45dbd03447a16b14eb673c0f1,
        type: 3}
      propertyPath: m_LocalRotation.w
      value: 1
      objectReference: {fileID: 0}
    - target: {fileID: -8679921383154817045, guid: 6293d6c45dbd03447a16b14eb673c0f1,
        type: 3}
      propertyPath: m_LocalRotation.x
      value: 0
      objectReference: {fileID: 0}
    - target: {fileID: -8679921383154817045, guid: 6293d6c45dbd03447a16b14eb673c0f1,
        type: 3}
      propertyPath: m_LocalRotation.y
      value: -0
      objectReference: {fileID: 0}
    - target: {fileID: -8679921383154817045, guid: 6293d6c45dbd03447a16b14eb673c0f1,
        type: 3}
      propertyPath: m_LocalRotation.z
      value: -0
      objectReference: {fileID: 0}
    - target: {fileID: -8679921383154817045, guid: 6293d6c45dbd03447a16b14eb673c0f1,
        type: 3}
      propertyPath: m_LocalEulerAnglesHint.x
      value: 0
      objectReference: {fileID: 0}
    - target: {fileID: -8679921383154817045, guid: 6293d6c45dbd03447a16b14eb673c0f1,
        type: 3}
      propertyPath: m_LocalEulerAnglesHint.y
      value: 0
      objectReference: {fileID: 0}
    - target: {fileID: -8679921383154817045, guid: 6293d6c45dbd03447a16b14eb673c0f1,
        type: 3}
      propertyPath: m_LocalEulerAnglesHint.z
      value: 0
      objectReference: {fileID: 0}
    - target: {fileID: -5435077106186940994, guid: 6293d6c45dbd03447a16b14eb673c0f1,
        type: 3}
      propertyPath: m_Materials.Array.data[0]
      value: 
      objectReference: {fileID: 2100000, guid: 8a8c6ac2ff4a25d44bf6332821613dc5, type: 2}
    - target: {fileID: 919132149155446097, guid: 6293d6c45dbd03447a16b14eb673c0f1,
        type: 3}
      propertyPath: m_Name
      value: mur_couloir_porte_simple
      objectReference: {fileID: 0}
    m_RemovedComponents: []
  m_SourcePrefab: {fileID: 100100000, guid: 6293d6c45dbd03447a16b14eb673c0f1, type: 3}
