%YAML 1.1
%TAG !u! tag:unity3d.com,2011:
--- !u!1001 &2160175906492302272
PrefabInstance:
  m_ObjectHideFlags: 0
  serializedVersion: 2
  m_Modification:
    m_TransformParent: {fileID: 0}
    m_Modifications:
    - target: {fileID: -8679921383154817045, guid: 9107bdd31226d0e4bbc7d3da80b88aaa,
        type: 3}
      propertyPath: m_RootOrder
      value: 0
      objectReference: {fileID: 0}
    - target: {fileID: -8679921383154817045, guid: 9107bdd31226d0e4bbc7d3da80b88aaa,
        type: 3}
      propertyPath: m_LocalScale.x
      value: 4.1136
      objectReference: {fileID: 0}
    - target: {fileID: -8679921383154817045, guid: 9107bdd31226d0e4bbc7d3da80b88aaa,
        type: 3}
      propertyPath: m_LocalScale.y
      value: 1.494608
      objectReference: {fileID: 0}
    - target: {fileID: -8679921383154817045, guid: 9107bdd31226d0e4bbc7d3da80b88aaa,
        type: 3}
      propertyPath: m_LocalScale.z
      value: 2
      objectReference: {fileID: 0}
    - target: {fileID: -8679921383154817045, guid: 9107bdd31226d0e4bbc7d3da80b88aaa,
        type: 3}
      propertyPath: m_LocalPosition.x
      value: 3.3358011
      objectReference: {fileID: 0}
    - target: {fileID: -8679921383154817045, guid: 9107bdd31226d0e4bbc7d3da80b88aaa,
        type: 3}
      propertyPath: m_LocalPosition.y
      value: 1.9722729
      objectReference: {fileID: 0}
    - target: {fileID: -8679921383154817045, guid: 9107bdd31226d0e4bbc7d3da80b88aaa,
        type: 3}
      propertyPath: m_LocalPosition.z
      value: 32.657352
      objectReference: {fileID: 0}
    - target: {fileID: -8679921383154817045, guid: 9107bdd31226d0e4bbc7d3da80b88aaa,
        type: 3}
      propertyPath: m_LocalRotation.w
      value: 0.7071068
      objectReference: {fileID: 0}
    - target: {fileID: -8679921383154817045, guid: 9107bdd31226d0e4bbc7d3da80b88aaa,
        type: 3}
      propertyPath: m_LocalRotation.x
      value: -0
      objectReference: {fileID: 0}
    - target: {fileID: -8679921383154817045, guid: 9107bdd31226d0e4bbc7d3da80b88aaa,
        type: 3}
      propertyPath: m_LocalRotation.y
      value: 0.7071068
      objectReference: {fileID: 0}
    - target: {fileID: -8679921383154817045, guid: 9107bdd31226d0e4bbc7d3da80b88aaa,
        type: 3}
      propertyPath: m_LocalRotation.z
      value: -0
      objectReference: {fileID: 0}
    - target: {fileID: -8679921383154817045, guid: 9107bdd31226d0e4bbc7d3da80b88aaa,
        type: 3}
      propertyPath: m_LocalEulerAnglesHint.x
      value: 0
      objectReference: {fileID: 0}
    - target: {fileID: -8679921383154817045, guid: 9107bdd31226d0e4bbc7d3da80b88aaa,
        type: 3}
      propertyPath: m_LocalEulerAnglesHint.y
      value: 90
      objectReference: {fileID: 0}
    - target: {fileID: -8679921383154817045, guid: 9107bdd31226d0e4bbc7d3da80b88aaa,
        type: 3}
      propertyPath: m_LocalEulerAnglesHint.z
      value: 0
      objectReference: {fileID: 0}
    - target: {fileID: -3644171249650141564, guid: 9107bdd31226d0e4bbc7d3da80b88aaa,
        type: 3}
      propertyPath: m_CastShadows
      value: 2
      objectReference: {fileID: 0}
    - target: {fileID: -3644171249650141564, guid: 9107bdd31226d0e4bbc7d3da80b88aaa,
        type: 3}
      propertyPath: m_Materials.Array.data[0]
      value: 
      objectReference: {fileID: 2100000, guid: 8a8c6ac2ff4a25d44bf6332821613dc5, type: 2}
    - target: {fileID: 919132149155446097, guid: 9107bdd31226d0e4bbc7d3da80b88aaa,
        type: 3}
      propertyPath: m_Name
      value: petite_commode_2tiroirs_sanspieds_separated Variant
      objectReference: {fileID: 0}
    - target: {fileID: 3208053851671658046, guid: 9107bdd31226d0e4bbc7d3da80b88aaa,
        type: 3}
      propertyPath: m_CastShadows
      value: 2
      objectReference: {fileID: 0}
    - target: {fileID: 3208053851671658046, guid: 9107bdd31226d0e4bbc7d3da80b88aaa,
        type: 3}
      propertyPath: m_Materials.Array.data[0]
      value: 
      objectReference: {fileID: 2100000, guid: 8a8c6ac2ff4a25d44bf6332821613dc5, type: 2}
    - target: {fileID: 3230340618352784458, guid: 9107bdd31226d0e4bbc7d3da80b88aaa,
        type: 3}
      propertyPath: m_CastShadows
      value: 2
      objectReference: {fileID: 0}
    - target: {fileID: 3230340618352784458, guid: 9107bdd31226d0e4bbc7d3da80b88aaa,
        type: 3}
      propertyPath: m_Materials.Array.data[0]
      value: 
      objectReference: {fileID: 2100000, guid: 8a8c6ac2ff4a25d44bf6332821613dc5, type: 2}
    - target: {fileID: 4871315072751156046, guid: 9107bdd31226d0e4bbc7d3da80b88aaa,
        type: 3}
      propertyPath: m_StaticEditorFlags
      value: 2147483647
      objectReference: {fileID: 0}
    m_RemovedComponents: []
  m_SourcePrefab: {fileID: 100100000, guid: 9107bdd31226d0e4bbc7d3da80b88aaa, type: 3}
--- !u!1 &3286345665474415844 stripped
GameObject:
  m_CorrespondingSourceObject: {fileID: -5737289666052518108, guid: 9107bdd31226d0e4bbc7d3da80b88aaa,
    type: 3}
  m_PrefabInstance: {fileID: 2160175906492302272}
  m_PrefabAsset: {fileID: 0}
--- !u!65 &1992287215232147735
BoxCollider:
  m_ObjectHideFlags: 0
  m_CorrespondingSourceObject: {fileID: 0}
  m_PrefabInstance: {fileID: 0}
  m_PrefabAsset: {fileID: 0}
  m_GameObject: {fileID: 3286345665474415844}
  m_Material: {fileID: 0}
  m_IsTrigger: 0
  m_Enabled: 1
  serializedVersion: 2
  m_Size: {x: 0.3756895, y: 0.1595171, z: 0.32441872}
  m_Center: {x: -0.00000029802322, y: -0.000000029802322, z: 0}
--- !u!1 &4390658076125962843 stripped
GameObject:
  m_CorrespondingSourceObject: {fileID: 2383737684383555995, guid: 9107bdd31226d0e4bbc7d3da80b88aaa,
    type: 3}
  m_PrefabInstance: {fileID: 2160175906492302272}
  m_PrefabAsset: {fileID: 0}
--- !u!65 &7441863617270734729
BoxCollider:
  m_ObjectHideFlags: 0
  m_CorrespondingSourceObject: {fileID: 0}
  m_PrefabInstance: {fileID: 0}
  m_PrefabAsset: {fileID: 0}
  m_GameObject: {fileID: 4390658076125962843}
  m_Material: {fileID: 0}
  m_IsTrigger: 0
  m_Enabled: 1
  serializedVersion: 2
  m_Size: {x: 0.3756895, y: 0.18279892, z: 0.32441872}
  m_Center: {x: -0.00000029802322, y: -0.000000052154064, z: 0}
