%YAML 1.1
%TAG !u! tag:unity3d.com,2011:
--- !u!1001 &9050294947367227617
PrefabInstance:
  m_ObjectHideFlags: 0
  serializedVersion: 2
  m_Modification:
    m_TransformParent: {fileID: 0}
    m_Modifications:
    - target: {fileID: 767060911532748629, guid: 78724ee86d8bc3f4baa9c8f7ca765f81,
        type: 3}
      propertyPath: m_CastShadows
      value: 2
      objectReference: {fileID: 0}
    - target: {fileID: 3460204468941616613, guid: 78724ee86d8bc3f4baa9c8f7ca765f81,
        type: 3}
      propertyPath: m_RootOrder
      value: 0
      objectReference: {fileID: 0}
    - target: {fileID: 3460204468941616613, guid: 78724ee86d8bc3f4baa9c8f7ca765f81,
        type: 3}
      propertyPath: m_LocalScale.x
      value: 1
      objectReference: {fileID: 0}
    - target: {fileID: 3460204468941616613, guid: 78724ee86d8bc3f4baa9c8f7ca765f81,
        type: 3}
      propertyPath: m_LocalScale.z
      value: 1
      objectReference: {fileID: 0}
    - target: {fileID: 3460204468941616613, guid: 78724ee86d8bc3f4baa9c8f7ca765f81,
        type: 3}
      propertyPath: m_LocalPosition.x
      value: 12.301159
      objectReference: {fileID: 0}
    - target: {fileID: 3460204468941616613, guid: 78724ee86d8bc3f4baa9c8f7ca765f81,
        type: 3}
      propertyPath: m_LocalPosition.y
      value: 0
      objectReference: {fileID: 0}
    - target: {fileID: 3460204468941616613, guid: 78724ee86d8bc3f4baa9c8f7ca765f81,
        type: 3}
      propertyPath: m_LocalPosition.z
      value: 28.034382
      objectReference: {fileID: 0}
    - target: {fileID: 3460204468941616613, guid: 78724ee86d8bc3f4baa9c8f7ca765f81,
        type: 3}
      propertyPath: m_LocalRotation.w
      value: 1
      objectReference: {fileID: 0}
    - target: {fileID: 3460204468941616613, guid: 78724ee86d8bc3f4baa9c8f7ca765f81,
        type: 3}
      propertyPath: m_LocalRotation.x
      value: -0
      objectReference: {fileID: 0}
    - target: {fileID: 3460204468941616613, guid: 78724ee86d8bc3f4baa9c8f7ca765f81,
        type: 3}
      propertyPath: m_LocalRotation.y
      value: -0
      objectReference: {fileID: 0}
    - target: {fileID: 3460204468941616613, guid: 78724ee86d8bc3f4baa9c8f7ca765f81,
        type: 3}
      propertyPath: m_LocalRotation.z
      value: -0
      objectReference: {fileID: 0}
    - target: {fileID: 3460204468941616613, guid: 78724ee86d8bc3f4baa9c8f7ca765f81,
        type: 3}
      propertyPath: m_LocalEulerAnglesHint.x
      value: 0
      objectReference: {fileID: 0}
    - target: {fileID: 3460204468941616613, guid: 78724ee86d8bc3f4baa9c8f7ca765f81,
        type: 3}
      propertyPath: m_LocalEulerAnglesHint.y
      value: 0
      objectReference: {fileID: 0}
    - target: {fileID: 3460204468941616613, guid: 78724ee86d8bc3f4baa9c8f7ca765f81,
        type: 3}
      propertyPath: m_LocalEulerAnglesHint.z
      value: 0
      objectReference: {fileID: 0}
    - target: {fileID: 4273578553075543903, guid: 78724ee86d8bc3f4baa9c8f7ca765f81,
        type: 3}
      propertyPath: m_Name
      value: sol_couloir B
      objectReference: {fileID: 0}
    - target: {fileID: 4273578553075543903, guid: 78724ee86d8bc3f4baa9c8f7ca765f81,
        type: 3}
      propertyPath: m_StaticEditorFlags
      value: 2147483647
      objectReference: {fileID: 0}
    - target: {fileID: 4939057655280888497, guid: 78724ee86d8bc3f4baa9c8f7ca765f81,
        type: 3}
      propertyPath: m_StaticEditorFlags
      value: 2147483647
      objectReference: {fileID: 0}
    m_RemovedComponents: []
  m_SourcePrefab: {fileID: 100100000, guid: 78724ee86d8bc3f4baa9c8f7ca765f81, type: 3}
