{
 "SoundBanksInfo": {
  "Platform": "Windows",
  "BasePlatform": "Windows",
  "SchemaVersion": "12",
  "SoundbankVersion": "140",
  "RootPaths": {
   "ProjectRoot": "D:\\DateNight_Project\\DateNight_Wwise\\",
   "SourceFilesRoot": "D:\\DateNight_Project\\DateNight_Wwise\\.cache\\Windows\\",
   "SoundBanksRoot": "D:\\DateNight_Project\\datenight\\Assets\\StreamingAssets\\Audio\\GeneratedSoundBanks\\Windows\\",
   "ExternalSourcesInputFile": "",
   "ExternalSourcesOutputRoot": "D:\\DateNight_Project\\DateNight_Wwise\\GeneratedSoundBanks\\Windows"
  },
  "SoundBanks": [
   {
    "Id": "2358686833",
    "GUID": "{89DA5AED-3102-45BB-BEB3-6E4164A5D84B}",
    "Language": "SFX",
    "Hash": "1048416361",
    "ObjectPath": "\\SoundBanks\\Default Work Unit\\DateNight",
    "ShortName": "DateNight",
    "Path": "DateNight.bnk",
    "IncludedEvents": [
     {
      "Id": "3864097025",
      "Name": "Pause_All",
      "ObjectPath": "\\Events\\DateNight_SFX\\Pause_All",
      "GUID": "{F0DBDCD7-C447-4394-88F2-774A95496D0C}",
      "MaxAttenuation": "0.",
      "DurationType": "OneShot",
      "DurationMin": "0.",
      "DurationMax": "0."
     },
     {
      "Id": "194770229",
      "Name": "Play_amb_dog_barks",
      "ObjectPath": "\\Events\\DateNight_SFX\\amb\\Play_amb_dog_barks",
      "GUID": "{68D0CECB-A98F-4451-BDE8-760792AE92EF}",
      "DurationType": "OneShot",
      "DurationMin": "0.",
      "DurationMax": "0.",
      "AuxBusSends": [
       {
        "Id": "1682361562",
        "Name": "rvb_chamber",
        "ObjectPath": "\\Master-Mixer Hierarchy\\DateNight\\Master Audio Bus\\Reverb\\rvb_chamber",
        "GUID": "{92287B53-A87D-4B6B-90BE-DE4133117E31}"
       },
       {
        "Id": "1883919640",
        "Name": "rvb_outdoor",
        "ObjectPath": "\\Master-Mixer Hierarchy\\DateNight\\Master Audio Bus\\Reverb\\rvb_outdoor",
        "GUID": "{14FB2FA9-03FD-47EA-9678-DB353DCBDD5E}"
       }
      ]
     },
     {
      "Id": "2775853383",
      "Name": "Play_amb_roomtone_chamber",
      "ObjectPath": "\\Events\\DateNight_SFX\\amb\\Play_amb_roomtone_chamber",
      "GUID": "{C1807028-B841-4BE3-AA4C-D50CBAE3045F}",
      "DurationType": "Infinite",
      "IncludedMemoryFiles": [
       {
        "Id": "761955852",
        "Language": "SFX",
        "ShortName": "amb_roomtone_chamber.wav",
        "Path": "SFX\\amb_roomtone_chamber_85444A49.wem"
       }
      ],
      "AuxBusSends": [
       {
        "Id": "1682361562",
        "Name": "rvb_chamber",
        "ObjectPath": "\\Master-Mixer Hierarchy\\DateNight\\Master Audio Bus\\Reverb\\rvb_chamber",
        "GUID": "{92287B53-A87D-4B6B-90BE-DE4133117E31}"
       },
       {
        "Id": "1883919640",
        "Name": "rvb_outdoor",
        "ObjectPath": "\\Master-Mixer Hierarchy\\DateNight\\Master Audio Bus\\Reverb\\rvb_outdoor",
        "GUID": "{14FB2FA9-03FD-47EA-9678-DB353DCBDD5E}"
       }
      ]
     },
     {
      "Id": "3785183433",
      "Name": "Play_amb_roomtone_corridor",
      "ObjectPath": "\\Events\\DateNight_SFX\\amb\\Play_amb_roomtone_corridor",
      "GUID": "{B17DBAE6-CF4B-41AF-8A96-87F6AB28FA5A}",
      "DurationType": "Infinite",
      "IncludedMemoryFiles": [
       {
        "Id": "193377289",
        "Language": "SFX",
        "ShortName": "amb_roomtone_corridor.wav",
        "Path": "SFX\\amb_roomtone_corridor_5A39E632.wem"
       }
      ],
      "AuxBusSends": [
       {
        "Id": "1682361562",
        "Name": "rvb_chamber",
        "ObjectPath": "\\Master-Mixer Hierarchy\\DateNight\\Master Audio Bus\\Reverb\\rvb_chamber",
        "GUID": "{92287B53-A87D-4B6B-90BE-DE4133117E31}"
       },
       {
        "Id": "1883919640",
        "Name": "rvb_outdoor",
        "ObjectPath": "\\Master-Mixer Hierarchy\\DateNight\\Master Audio Bus\\Reverb\\rvb_outdoor",
        "GUID": "{14FB2FA9-03FD-47EA-9678-DB353DCBDD5E}"
       },
       {
        "Id": "3148728066",
        "Name": "rvb_corridor",
        "ObjectPath": "\\Master-Mixer Hierarchy\\DateNight\\Master Audio Bus\\Reverb\\rvb_corridor",
        "GUID": "{C3784225-8057-4083-BE93-62647AA5A8CE}"
       }
      ]
     },
     {
      "Id": "2173793916",
      "Name": "Play_amb_roomtone_desk",
      "ObjectPath": "\\Events\\DateNight_SFX\\amb\\Play_amb_roomtone_desk",
      "GUID": "{44CF84B7-3883-4804-B0B9-A02359394F96}",
      "DurationType": "Infinite",
      "IncludedMemoryFiles": [
       {
        "Id": "761955852",
        "Language": "SFX",
        "ShortName": "amb_roomtone_chamber.wav",
        "Path": "SFX\\amb_roomtone_chamber_85444A49.wem"
       }
      ],
      "AuxBusSends": [
       {
        "Id": "1682361562",
        "Name": "rvb_chamber",
        "ObjectPath": "\\Master-Mixer Hierarchy\\DateNight\\Master Audio Bus\\Reverb\\rvb_chamber",
        "GUID": "{92287B53-A87D-4B6B-90BE-DE4133117E31}"
       },
       {
        "Id": "1883919640",
        "Name": "rvb_outdoor",
        "ObjectPath": "\\Master-Mixer Hierarchy\\DateNight\\Master Audio Bus\\Reverb\\rvb_outdoor",
        "GUID": "{14FB2FA9-03FD-47EA-9678-DB353DCBDD5E}"
       }
      ]
     },
     {
      "Id": "460548394",
      "Name": "Play_amb_roomtone_hall",
      "ObjectPath": "\\Events\\DateNight_SFX\\amb\\Play_amb_roomtone_hall",
      "GUID": "{DF1D212A-E46C-4AF5-9A59-449EB7EAE3D8}",
      "DurationType": "Infinite",
      "IncludedMemoryFiles": [
       {
        "Id": "761955852",
        "Language": "SFX",
        "ShortName": "amb_roomtone_chamber.wav",
        "Path": "SFX\\amb_roomtone_chamber_85444A49.wem"
       }
      ],
      "AuxBusSends": [
       {
        "Id": "1682361562",
        "Name": "rvb_chamber",
        "ObjectPath": "\\Master-Mixer Hierarchy\\DateNight\\Master Audio Bus\\Reverb\\rvb_chamber",
        "GUID": "{92287B53-A87D-4B6B-90BE-DE4133117E31}"
       },
       {
        "Id": "1883919640",
        "Name": "rvb_outdoor",
        "ObjectPath": "\\Master-Mixer Hierarchy\\DateNight\\Master Audio Bus\\Reverb\\rvb_outdoor",
        "GUID": "{14FB2FA9-03FD-47EA-9678-DB353DCBDD5E}"
       }
      ]
     },
     {
      "Id": "1049199867",
      "Name": "Play_amb_roomtone_hosptital",
      "ObjectPath": "\\Events\\DateNight_SFX\\amb\\Play_amb_roomtone_hosptital",
      "GUID": "{6EAB6929-231B-4FFC-A141-C37F863ADE61}",
      "DurationType": "Infinite",
      "IncludedMemoryFiles": [
       {
        "Id": "761955852",
        "Language": "SFX",
        "ShortName": "amb_roomtone_chamber.wav",
        "Path": "SFX\\amb_roomtone_chamber_85444A49.wem"
       }
      ],
      "AuxBusSends": [
       {
        "Id": "1682361562",
        "Name": "rvb_chamber",
        "ObjectPath": "\\Master-Mixer Hierarchy\\DateNight\\Master Audio Bus\\Reverb\\rvb_chamber",
        "GUID": "{92287B53-A87D-4B6B-90BE-DE4133117E31}"
       },
       {
        "Id": "1883919640",
        "Name": "rvb_outdoor",
        "ObjectPath": "\\Master-Mixer Hierarchy\\DateNight\\Master Audio Bus\\Reverb\\rvb_outdoor",
        "GUID": "{14FB2FA9-03FD-47EA-9678-DB353DCBDD5E}"
       }
      ]
     },
     {
      "Id": "941023664",
      "Name": "Play_amb_roomtone_playroom",
      "ObjectPath": "\\Events\\DateNight_SFX\\amb\\Play_amb_roomtone_playroom",
      "GUID": "{000A7F96-B500-4C95-ADAE-D6A401B21DDA}",
      "DurationType": "Infinite",
      "IncludedMemoryFiles": [
       {
        "Id": "761955852",
        "Language": "SFX",
        "ShortName": "amb_roomtone_chamber.wav",
        "Path": "SFX\\amb_roomtone_chamber_85444A49.wem"
       }
      ],
      "AuxBusSends": [
       {
        "Id": "1682361562",
        "Name": "rvb_chamber",
        "ObjectPath": "\\Master-Mixer Hierarchy\\DateNight\\Master Audio Bus\\Reverb\\rvb_chamber",
        "GUID": "{92287B53-A87D-4B6B-90BE-DE4133117E31}"
       },
       {
        "Id": "1883919640",
        "Name": "rvb_outdoor",
        "ObjectPath": "\\Master-Mixer Hierarchy\\DateNight\\Master Audio Bus\\Reverb\\rvb_outdoor",
        "GUID": "{14FB2FA9-03FD-47EA-9678-DB353DCBDD5E}"
       }
      ]
     },
     {
      "Id": "637501428",
      "Name": "Play_music_game",
      "ObjectPath": "\\Events\\Default Work Unit\\Play_music_game",
      "GUID": "{D6BB73EB-693A-4A54-A281-341BE0D612F8}",
      "DurationType": "Infinite",
      "IncludedMemoryFiles": [
       {
        "Id": "155971186",
        "Language": "SFX",
        "ShortName": "DateNight_demo_panique.wav",
        "Path": "SFX\\DateNight_demo_panique_D79FB2B7.wem"
       },
       {
        "Id": "918188558",
        "Language": "SFX",
        "ShortName": "DateNight_demo_chill.wav",
        "Path": "SFX\\DateNight_demo_chill_D79FB2B7.wem"
       }
      ],
      "SwitchContainers": [
       {
        "SwitchValue": "{36833F96-B003-4996-8CD3-B3EC5E51AC88}",
        "Media": [
         {
          "Id": "155971186"
         }
        ]
       },
       {
        "SwitchValue": "{FE507EE0-0477-4B62-974A-620EFA81189C}",
        "Media": [
         {
          "Id": "918188558"
         }
        ]
       }
      ]
     },
     {
      "Id": "3047501943",
      "Name": "Play_sfx_ash_entering",
      "ObjectPath": "\\Events\\DateNight_SFX\\sfx\\Play_sfx_ash_entering",
      "GUID": "{7E933589-77C0-4079-A2C8-B1D6959EE59C}",
      "DurationType": "OneShot",
      "DurationMin": "0.",
      "DurationMax": "0."
     },
     {
      "Id": "3490102551",
      "Name": "Play_sfx_ash_entrance",
      "ObjectPath": "\\Events\\DateNight_SFX\\sfx\\Play_sfx_ash_entrance",
      "GUID": "{CBF42BC3-EB12-46F5-A04E-8F3000B320FF}",
      "DurationType": "OneShot",
      "DurationMin": "9.",
      "DurationMax": "9.",
      "IncludedMemoryFiles": [
       {
        "Id": "726624382",
        "Language": "SFX",
        "ShortName": "sfx_ash_entrance.wav",
        "Path": "SFX\\sfx_ash_entrance_71D3C5F7.wem"
       },
       {
        "Id": "937649558",
        "Language": "SFX",
        "ShortName": "sfx_ash_entrance.wav",
        "Path": "SFX\\sfx_ash_entrance_10C4C929.wem"
       }
      ]
     },
     {
      "Id": "3458164030",
      "Name": "Play_sfx_ash_footsteps",
      "ObjectPath": "\\Events\\DateNight_SFX\\sfx\\Play_sfx_ash_footsteps",
      "GUID": "{A320B261-4420-46A1-B1CC-E5A6D0DFE356}",
      "DurationType": "OneShot",
      "DurationMin": "0.",
      "DurationMax": "0."
     },
     {
      "Id": "2037460026",
      "Name": "Play_sfx_ash_movement",
      "ObjectPath": "\\Events\\DateNight_SFX\\sfx\\Play_sfx_ash_movement",
      "GUID": "{EEC15E60-09B5-45CA-9F0A-033D9866E24E}",
      "DurationType": "OneShot",
      "DurationMin": "0.",
      "DurationMax": "0."
     },
     {
      "Id": "3259796238",
      "Name": "Play_sfx_game_game_over",
      "ObjectPath": "\\Events\\DateNight_SFX\\sfx\\Play_sfx_game_game_over",
      "GUID": "{74045AD1-2BF7-4514-9114-78DD359ADF2D}",
      "DurationType": "OneShot",
      "DurationMin": "14.790424",
      "DurationMax": "14.790424",
      "IncludedMemoryFiles": [
       {
        "Id": "726624382",
        "Language": "SFX",
        "ShortName": "sfx_ash_entrance.wav",
        "Path": "SFX\\sfx_ash_entrance_71D3C5F7.wem"
       },
       {
        "Id": "937649558",
        "Language": "SFX",
        "ShortName": "sfx_ash_entrance.wav",
        "Path": "SFX\\sfx_ash_entrance_10C4C929.wem"
       }
      ]
     },
     {
      "Id": "1384844463",
      "Name": "Play_sfx_game_victory",
      "ObjectPath": "\\Events\\DateNight_SFX\\sfx\\Play_sfx_game_victory",
      "GUID": "{2B6F9F05-046C-475A-82F2-63319A8A135F}",
      "DurationType": "OneShot",
      "DurationMin": "3.294193",
      "DurationMax": "3.294193",
      "IncludedMemoryFiles": [
       {
        "Id": "726624382",
        "Language": "SFX",
        "ShortName": "sfx_ash_entrance.wav",
        "Path": "SFX\\sfx_ash_entrance_71D3C5F7.wem"
       },
       {
        "Id": "937649558",
        "Language": "SFX",
        "ShortName": "sfx_ash_entrance.wav",
        "Path": "SFX\\sfx_ash_entrance_10C4C929.wem"
       }
      ]
     },
     {
      "Id": "129274774",
      "Name": "Play_sfx_int_balloon_burst",
      "ObjectPath": "\\Events\\DateNight_SFX\\sfx\\sfx_int\\Play_sfx_int_balloon_burst",
      "GUID": "{6D909131-5F1C-4966-ABC7-2DFD7D6EB632}",
      "DurationType": "OneShot",
      "DurationMin": "0.335885",
      "DurationMax": "0.335885",
      "IncludedMemoryFiles": [
       {
        "Id": "990075711",
        "Language": "SFX",
        "ShortName": "ballon_burst_placeholder.wav",
        "Path": "SFX\\ballon_burst_placeholder_10C4C929.wem"
       }
      ]
     },
     {
      "Id": "3532855204",
      "Name": "Play_sfx_int_book_fall_on_floor",
      "ObjectPath": "\\Events\\DateNight_SFX\\sfx\\sfx_int\\Play_sfx_int_book_fall_on_floor",
      "GUID": "{C13D17D1-0445-4D38-834E-9AC46D2F2509}",
      "DurationType": "OneShot",
      "DurationMin": "0.27737",
      "DurationMax": "0.370242",
      "IncludedMemoryFiles": [
       {
        "Id": "71485684",
        "Language": "SFX",
        "ShortName": "sfx_int_book_fall_on_floor_medium_03.wav",
        "Path": "SFX\\sfx_int_book_fall_on_floor_medium_03_10C4C929.wem"
       },
       {
        "Id": "77229979",
        "Language": "SFX",
        "ShortName": "sfx_int_book_fall_on_floor_light_03.wav",
        "Path": "SFX\\sfx_int_book_fall_on_floor_light_03_10C4C929.wem"
       },
       {
        "Id": "94215488",
        "Language": "SFX",
        "ShortName": "sfx_int_book_fall_on_floor_medium_02.wav",
        "Path": "SFX\\sfx_int_book_fall_on_floor_medium_02_10C4C929.wem"
       },
       {
        "Id": "221803274",
        "Language": "SFX",
        "ShortName": "sfx_int_book_fall_on_floor_heavy_05.wav",
        "Path": "SFX\\sfx_int_book_fall_on_floor_heavy_05_10C4C929.wem"
       },
       {
        "Id": "260427299",
        "Language": "SFX",
        "ShortName": "sfx_int_book_fall_on_floor_heavy_07.wav",
        "Path": "SFX\\sfx_int_book_fall_on_floor_heavy_07_10C4C929.wem"
       },
       {
        "Id": "265476459",
        "Language": "SFX",
        "ShortName": "sfx_int_book_fall_on_floor_heavy_04.wav",
        "Path": "SFX\\sfx_int_book_fall_on_floor_heavy_04_10C4C929.wem"
       },
       {
        "Id": "296131145",
        "Language": "SFX",
        "ShortName": "sfx_int_book_fall_on_floor_heavy_10.wav",
        "Path": "SFX\\sfx_int_book_fall_on_floor_heavy_10_10C4C929.wem"
       },
       {
        "Id": "461920381",
        "Language": "SFX",
        "ShortName": "sfx_int_book_fall_on_floor_medium_06.wav",
        "Path": "SFX\\sfx_int_book_fall_on_floor_medium_06_10C4C929.wem"
       },
       {
        "Id": "487958399",
        "Language": "SFX",
        "ShortName": "sfx_int_book_fall_on_floor_light_01.wav",
        "Path": "SFX\\sfx_int_book_fall_on_floor_light_01_10C4C929.wem"
       },
       {
        "Id": "543431099",
        "Language": "SFX",
        "ShortName": "sfx_int_book_fall_on_floor_heavy_02.wav",
        "Path": "SFX\\sfx_int_book_fall_on_floor_heavy_02_10C4C929.wem"
       },
       {
        "Id": "574534419",
        "Language": "SFX",
        "ShortName": "sfx_int_book_fall_on_floor_light_02.wav",
        "Path": "SFX\\sfx_int_book_fall_on_floor_light_02_10C4C929.wem"
       },
       {
        "Id": "588780362",
        "Language": "SFX",
        "ShortName": "sfx_int_book_fall_on_floor_heavy_13.wav",
        "Path": "SFX\\sfx_int_book_fall_on_floor_heavy_13_10C4C929.wem"
       },
       {
        "Id": "663208398",
        "Language": "SFX",
        "ShortName": "sfx_int_book_fall_on_floor_heavy_03.wav",
        "Path": "SFX\\sfx_int_book_fall_on_floor_heavy_03_10C4C929.wem"
       },
       {
        "Id": "752321398",
        "Language": "SFX",
        "ShortName": "sfx_int_book_fall_on_floor_heavy_01.wav",
        "Path": "SFX\\sfx_int_book_fall_on_floor_heavy_01_10C4C929.wem"
       },
       {
        "Id": "791572705",
        "Language": "SFX",
        "ShortName": "sfx_int_book_fall_on_floor_heavy_06.wav",
        "Path": "SFX\\sfx_int_book_fall_on_floor_heavy_06_10C4C929.wem"
       },
       {
        "Id": "971744171",
        "Language": "SFX",
        "ShortName": "sfx_int_book_fall_on_floor_light_04.wav",
        "Path": "SFX\\sfx_int_book_fall_on_floor_light_04_10C4C929.wem"
       },
       {
        "Id": "1035096335",
        "Language": "SFX",
        "ShortName": "sfx_int_book_fall_on_floor_medium_01.wav",
        "Path": "SFX\\sfx_int_book_fall_on_floor_medium_01_10C4C929.wem"
       }
      ]
     },
     {
      "Id": "3622062475",
      "Name": "Play_sfx_int_button_push_doorkey",
      "ObjectPath": "\\Events\\DateNight_SFX\\sfx\\sfx_int\\Play_sfx_int_button_push_doorkey",
      "GUID": "{3FAF1DD9-07B1-483C-A72C-5FCF78CA49F2}",
      "DurationType": "OneShot",
      "DurationMin": "0.084716",
      "DurationMax": "0.084716",
      "IncludedMemoryFiles": [
       {
        "Id": "752321398",
        "Language": "SFX",
        "ShortName": "sfx_int_book_fall_on_floor_heavy_01.wav",
        "Path": "SFX\\sfx_int_book_fall_on_floor_heavy_01_10C4C929.wem"
       }
      ]
     },
     {
      "Id": "1818531362",
      "Name": "Play_sfx_int_button_push_lever",
      "ObjectPath": "\\Events\\DateNight_SFX\\sfx\\sfx_int\\Play_sfx_int_button_push_lever",
      "GUID": "{92CB9B34-528A-4C12-AF79-C9782388D80B}",
      "DurationType": "OneShot",
      "DurationMin": "0.693572",
      "DurationMax": "0.693572",
      "IncludedMemoryFiles": [
       {
        "Id": "752321398",
        "Language": "SFX",
        "ShortName": "sfx_int_book_fall_on_floor_heavy_01.wav",
        "Path": "SFX\\sfx_int_book_fall_on_floor_heavy_01_10C4C929.wem"
       }
      ]
     },
     {
      "Id": "133490922",
      "Name": "Play_sfx_int_calendar_moving_pages",
      "ObjectPath": "\\Events\\DateNight_SFX\\sfx\\sfx_int\\Play_sfx_int_calendar_moving_pages",
      "GUID": "{1D940E31-7DB5-4430-90A1-F38BB7EB1A73}",
      "DurationType": "OneShot",
      "DurationMin": "0.21598",
      "DurationMax": "0.486865",
      "IncludedMemoryFiles": [
       {
        "Id": "645440799",
        "Language": "SFX",
        "ShortName": "sfx_int_calendar_moving_page_01.wav",
        "Path": "SFX\\sfx_int_calendar_moving_page_01_10C4C929.wem"
       },
       {
        "Id": "978105355",
        "Language": "SFX",
        "ShortName": "sfx_int_calendar_moving_page_02.wav",
        "Path": "SFX\\sfx_int_calendar_moving_page_02_10C4C929.wem"
       }
      ]
     },
     {
      "Id": "3942372434",
      "Name": "Play_sfx_int_charentaise_toss_impact",
      "ObjectPath": "\\Events\\DateNight_SFX\\sfx\\sfx_int\\Play_sfx_int_charentaise_toss_impact",
      "GUID": "{F6E635FA-4078-4E62-B57A-6E3A2D306F7F}",
      "DurationType": "OneShot",
      "DurationMin": "0.113906",
      "DurationMax": "0.122958",
      "IncludedMemoryFiles": [
       {
        "Id": "158365367",
        "Language": "SFX",
        "ShortName": "sfx_int_charentaise_toss_impact_01.wav",
        "Path": "SFX\\sfx_int_charentaise_toss_impact_01_10C4C929.wem"
       },
       {
        "Id": "167274355",
        "Language": "SFX",
        "ShortName": "sfx_int_charentaise_toss_impact_02.wav",
        "Path": "SFX\\sfx_int_charentaise_toss_impact_02_10C4C929.wem"
       },
       {
        "Id": "282324138",
        "Language": "SFX",
        "ShortName": "sfx_toss_impact_object_slight.wav",
        "Path": "SFX\\sfx_toss_impact_object_slight_10C4C929.wem"
       },
       {
        "Id": "564881195",
        "Language": "SFX",
        "ShortName": "sfx_toss_impact_object_medium.wav",
        "Path": "SFX\\sfx_toss_impact_object_medium_10C4C929.wem"
       }
      ],
      "AuxBusSends": [
       {
        "Id": "1682361562",
        "Name": "rvb_chamber",
        "ObjectPath": "\\Master-Mixer Hierarchy\\DateNight\\Master Audio Bus\\Reverb\\rvb_chamber",
        "GUID": "{92287B53-A87D-4B6B-90BE-DE4133117E31}"
       }
      ]
     },
     {
      "Id": "2205318028",
      "Name": "Play_sfx_int_denture_toss_impact",
      "ObjectPath": "\\Events\\DateNight_SFX\\sfx\\sfx_int\\Play_sfx_int_denture_toss_impact",
      "GUID": "{86B06E87-D598-4065-836A-703DCB3147D4}",
      "DurationType": "OneShot",
      "DurationMin": "0.056401",
      "DurationMax": "0.056401",
      "IncludedMemoryFiles": [
       {
        "Id": "282324138",
        "Language": "SFX",
        "ShortName": "sfx_toss_impact_object_slight.wav",
        "Path": "SFX\\sfx_toss_impact_object_slight_10C4C929.wem"
       },
       {
        "Id": "564881195",
        "Language": "SFX",
        "ShortName": "sfx_toss_impact_object_medium.wav",
        "Path": "SFX\\sfx_toss_impact_object_medium_10C4C929.wem"
       },
       {
        "Id": "875825978",
        "Language": "SFX",
        "ShortName": "sfx_object_02.wav",
        "Path": "SFX\\sfx_object_02_10C4C929.wem"
       }
      ],
      "AuxBusSends": [
       {
        "Id": "1682361562",
        "Name": "rvb_chamber",
        "ObjectPath": "\\Master-Mixer Hierarchy\\DateNight\\Master Audio Bus\\Reverb\\rvb_chamber",
        "GUID": "{92287B53-A87D-4B6B-90BE-DE4133117E31}"
       }
      ]
     },
     {
      "Id": "1306945837",
      "Name": "Play_sfx_int_dishes_break_long",
      "ObjectPath": "\\Events\\DateNight_SFX\\sfx\\sfx_int\\Play_sfx_int_dishes_break_long",
      "GUID": "{00274893-DC9F-4E0E-B8A8-2478FF9DD843}",
      "DurationType": "OneShot",
      "DurationMin": "0.917333",
      "DurationMax": "1.877333",
      "IncludedMemoryFiles": [
       {
        "Id": "251123476",
        "Language": "SFX",
        "ShortName": "sfx_int_dishes_break_long_01.wav",
        "Path": "SFX\\sfx_int_dishes_break_long_01_10C4C929.wem"
       },
       {
        "Id": "796583717",
        "Language": "SFX",
        "ShortName": "sfx_int_dishes_break_long_02.wav",
        "Path": "SFX\\sfx_int_dishes_break_long_02_10C4C929.wem"
       },
       {
        "Id": "831131012",
        "Language": "SFX",
        "ShortName": "sfx_int_dishes_break_long_03.wav",
        "Path": "SFX\\sfx_int_dishes_break_long_03_10C4C929.wem"
       }
      ]
     },
     {
      "Id": "1890814399",
      "Name": "Play_sfx_int_dishes_break_ride_on",
      "ObjectPath": "\\Events\\DateNight_SFX\\sfx\\sfx_int\\Play_sfx_int_dishes_break_ride_on",
      "GUID": "{E718E2F1-8334-4BB1-8DAA-6040C61ED6FB}",
      "DurationType": "OneShot",
      "DurationMin": "0.35",
      "DurationMax": "0.497813",
      "IncludedMemoryFiles": [
       {
        "Id": "163003991",
        "Language": "SFX",
        "ShortName": "sfx_int_dishes_break_ride_on_04.wav",
        "Path": "SFX\\sfx_int_dishes_break_ride_on_04_10C4C929.wem"
       },
       {
        "Id": "242259640",
        "Language": "SFX",
        "ShortName": "sfx_int_dishes_break_ride_on_07.wav",
        "Path": "SFX\\sfx_int_dishes_break_ride_on_07_10C4C929.wem"
       },
       {
        "Id": "267686927",
        "Language": "SFX",
        "ShortName": "sfx_int_dishes_break_ride_on_08.wav",
        "Path": "SFX\\sfx_int_dishes_break_ride_on_08_10C4C929.wem"
       },
       {
        "Id": "357455986",
        "Language": "SFX",
        "ShortName": "sfx_int_dishes_break_ride_on_02.wav",
        "Path": "SFX\\sfx_int_dishes_break_ride_on_02_10C4C929.wem"
       },
       {
        "Id": "499103863",
        "Language": "SFX",
        "ShortName": "sfx_int_dishes_break_ride_on_06.wav",
        "Path": "SFX\\sfx_int_dishes_break_ride_on_06_10C4C929.wem"
       },
       {
        "Id": "511225963",
        "Language": "SFX",
        "ShortName": "sfx_int_dishes_break_ride_on_01.wav",
        "Path": "SFX\\sfx_int_dishes_break_ride_on_01_10C4C929.wem"
       },
       {
        "Id": "617400566",
        "Language": "SFX",
        "ShortName": "sfx_int_dishes_break_ride_on_03.wav",
        "Path": "SFX\\sfx_int_dishes_break_ride_on_03_10C4C929.wem"
       },
       {
        "Id": "1038239643",
        "Language": "SFX",
        "ShortName": "sfx_int_dishes_break_ride_on_05.wav",
        "Path": "SFX\\sfx_int_dishes_break_ride_on_05_10C4C929.wem"
       }
      ]
     },
     {
      "Id": "2469250731",
      "Name": "Play_sfx_int_dishes_break_short",
      "ObjectPath": "\\Events\\DateNight_SFX\\sfx\\sfx_int\\Play_sfx_int_dishes_break_short",
      "GUID": "{DFE4E5D8-AAEB-4929-B656-1D141D0D6E09}",
      "DurationType": "OneShot",
      "DurationMin": "0.490667",
      "DurationMax": "0.631979",
      "IncludedMemoryFiles": [
       {
        "Id": "166895842",
        "Language": "SFX",
        "ShortName": "sfx_int_dishes_break_short_01.wav",
        "Path": "SFX\\sfx_int_dishes_break_short_01_10C4C929.wem"
       },
       {
        "Id": "278906218",
        "Language": "SFX",
        "ShortName": "sfx_int_dishes_break_short_03.wav",
        "Path": "SFX\\sfx_int_dishes_break_short_03_10C4C929.wem"
       },
       {
        "Id": "629218961",
        "Language": "SFX",
        "ShortName": "sfx_int_dishes_break_short_02.wav",
        "Path": "SFX\\sfx_int_dishes_break_short_02_10C4C929.wem"
       },
       {
        "Id": "758356790",
        "Language": "SFX",
        "ShortName": "sfx_int_dishes_break_short_04.wav",
        "Path": "SFX\\sfx_int_dishes_break_short_04_10C4C929.wem"
       }
      ]
     },
     {
      "Id": "3376709193",
      "Name": "Play_sfx_int_double_door_hall_close",
      "ObjectPath": "\\Events\\DateNight_SFX\\sfx\\sfx_int_doors\\Play_sfx_int_double_door_hall_close",
      "GUID": "{27F7773A-E47B-4596-878F-464DFE0A863E}",
      "DurationType": "OneShot",
      "DurationMin": "0.662042",
      "DurationMax": "0.752312",
      "IncludedMemoryFiles": [
       {
        "Id": "307752628",
        "Language": "SFX",
        "ShortName": "sfx_int_gameroom_door_close_01.wav",
        "Path": "SFX\\sfx_int_gameroom_door_close_01_10C4C929.wem"
       },
       {
        "Id": "598373612",
        "Language": "SFX",
        "ShortName": "sfx_int_gameroom_door_close_03.wav",
        "Path": "SFX\\sfx_int_gameroom_door_close_03_10C4C929.wem"
       },
       {
        "Id": "747839084",
        "Language": "SFX",
        "ShortName": "sfx_int_gameroom_door_close_02.wav",
        "Path": "SFX\\sfx_int_gameroom_door_close_02_10C4C929.wem"
       },
       {
        "Id": "1041258676",
        "Language": "SFX",
        "ShortName": "sfx_int_gameroom_door_close_04.wav",
        "Path": "SFX\\sfx_int_gameroom_door_close_04_10C4C929.wem"
       }
      ]
     },
     {
      "Id": "188723483",
      "Name": "Play_sfx_int_double_door_hall_open",
      "ObjectPath": "\\Events\\DateNight_SFX\\sfx\\sfx_int_doors\\Play_sfx_int_double_door_hall_open",
      "GUID": "{576DC061-5067-4293-B6E2-9097D192904B}",
      "DurationType": "OneShot",
      "DurationMin": "0.584167",
      "DurationMax": "0.626333",
      "IncludedMemoryFiles": [
       {
        "Id": "522474428",
        "Language": "SFX",
        "ShortName": "sfx_int_gameroom_door_open_04.wav",
        "Path": "SFX\\sfx_int_gameroom_door_open_04_10C4C929.wem"
       },
       {
        "Id": "634258417",
        "Language": "SFX",
        "ShortName": "sfx_int_gameroom_door_open_03.wav",
        "Path": "SFX\\sfx_int_gameroom_door_open_03_10C4C929.wem"
       },
       {
        "Id": "706023035",
        "Language": "SFX",
        "ShortName": "sfx_int_gameroom_door_open_01.wav",
        "Path": "SFX\\sfx_int_gameroom_door_open_01_10C4C929.wem"
       },
       {
        "Id": "913143714",
        "Language": "SFX",
        "ShortName": "sfx_int_gameroom_door_open_02.wav",
        "Path": "SFX\\sfx_int_gameroom_door_open_02_10C4C929.wem"
       }
      ]
     },
     {
      "Id": "3737609047",
      "Name": "Play_sfx_int_drug_energic_mouvement",
      "ObjectPath": "\\Events\\DateNight_SFX\\sfx\\sfx_int\\Play_sfx_int_drug_energic_mouvement",
      "GUID": "{CC3564D1-686C-43D6-8F07-79936E21C603}",
      "DurationType": "OneShot",
      "DurationMin": "0.226096",
      "DurationMax": "0.301802",
      "IncludedMemoryFiles": [
       {
        "Id": "544511855",
        "Language": "SFX",
        "ShortName": "sfx_int_drug_energic_mouvement.wav",
        "Path": "SFX\\sfx_int_drug_energic_mouvement_10C4C929.wem"
       }
      ]
     },
     {
      "Id": "4234958161",
      "Name": "Play_sfx_int_drug_shake",
      "ObjectPath": "\\Events\\DateNight_SFX\\sfx\\sfx_int\\Play_sfx_int_drug_shake",
      "GUID": "{1A1D906C-9BD7-4879-A37E-61FEA7AE54D0}",
      "DurationType": "OneShot",
      "DurationMin": "0.169094",
      "DurationMax": "0.255729",
      "IncludedMemoryFiles": [
       {
        "Id": "47654887",
        "Language": "SFX",
        "ShortName": "sfx_int_drug_shake_03.wav",
        "Path": "SFX\\sfx_int_drug_shake_03_10C4C929.wem"
       },
       {
        "Id": "163683962",
        "Language": "SFX",
        "ShortName": "sfx_int_drug_shake_08.wav",
        "Path": "SFX\\sfx_int_drug_shake_08_10C4C929.wem"
       },
       {
        "Id": "311142156",
        "Language": "SFX",
        "ShortName": "sfx_int_drug_shake_04.wav",
        "Path": "SFX\\sfx_int_drug_shake_04_10C4C929.wem"
       },
       {
        "Id": "586056639",
        "Language": "SFX",
        "ShortName": "sfx_int_drug_shake_05.wav",
        "Path": "SFX\\sfx_int_drug_shake_05_10C4C929.wem"
       },
       {
        "Id": "909580977",
        "Language": "SFX",
        "ShortName": "sfx_int_drug_shake_01.wav",
        "Path": "SFX\\sfx_int_drug_shake_01_10C4C929.wem"
       },
       {
        "Id": "990365119",
        "Language": "SFX",
        "ShortName": "sfx_int_drug_shake_06.wav",
        "Path": "SFX\\sfx_int_drug_shake_06_10C4C929.wem"
       },
       {
        "Id": "1011861742",
        "Language": "SFX",
        "ShortName": "sfx_int_drug_shake_07.wav",
        "Path": "SFX\\sfx_int_drug_shake_07_10C4C929.wem"
       },
       {
        "Id": "1037378191",
        "Language": "SFX",
        "ShortName": "sfx_int_drug_shake_02.wav",
        "Path": "SFX\\sfx_int_drug_shake_02_10C4C929.wem"
       }
      ]
     },
     {
      "Id": "2528992456",
      "Name": "Play_sfx_int_drug_smooth_mouvement",
      "ObjectPath": "\\Events\\DateNight_SFX\\sfx\\sfx_int\\Play_sfx_int_drug_smooth_mouvement",
      "GUID": "{4C019DF6-305A-4658-AB70-B3535CB04E0F}",
      "DurationType": "OneShot",
      "DurationMin": "0.247021",
      "DurationMax": "0.27325",
      "IncludedMemoryFiles": [
       {
        "Id": "259943100",
        "Language": "SFX",
        "ShortName": "sfx_int_drug_smooth_mouvement_02.wav",
        "Path": "SFX\\sfx_int_drug_smooth_mouvement_02_10C4C929.wem"
       },
       {
        "Id": "805427375",
        "Language": "SFX",
        "ShortName": "sfx_int_drug_smooth_mouvement_03.wav",
        "Path": "SFX\\sfx_int_drug_smooth_mouvement_03_10C4C929.wem"
       },
       {
        "Id": "813160367",
        "Language": "SFX",
        "ShortName": "sfx_int_drug_smooth_mouvement_04.wav",
        "Path": "SFX\\sfx_int_drug_smooth_mouvement_04_10C4C929.wem"
       },
       {
        "Id": "927841597",
        "Language": "SFX",
        "ShortName": "sfx_int_drug_smooth_mouvement_01.wav",
        "Path": "SFX\\sfx_int_drug_smooth_mouvement_01_10C4C929.wem"
       }
      ]
     },
     {
      "Id": "2557380336",
      "Name": "Play_sfx_int_duck_click_off",
      "ObjectPath": "\\Events\\DateNight_SFX\\sfx\\sfx_int\\Play_sfx_int_duck_click_off",
      "GUID": "{734626B0-D109-444E-8A1E-7706A9157E4F}",
      "MaxAttenuation": "100.",
      "DurationType": "OneShot",
      "DurationMin": "0.153646",
      "DurationMax": "0.153646",
      "IncludedMemoryFiles": [
       {
        "Id": "1055893443",
        "Language": "SFX",
        "ShortName": "sfx_int_duck_vibration_click_off.wav",
        "Path": "SFX\\sfx_int_duck_vibration_click_off_10C4C929.wem"
       }
      ]
     },
     {
      "Id": "3088274650",
      "Name": "Play_sfx_int_duck_click_on",
      "ObjectPath": "\\Events\\DateNight_SFX\\sfx\\sfx_int\\Play_sfx_int_duck_click_on",
      "GUID": "{658E1BBE-10D8-4265-98CA-794CE37E63CD}",
      "MaxAttenuation": "100.",
      "DurationType": "OneShot",
      "DurationMin": "0.166229",
      "DurationMax": "0.166229",
      "IncludedMemoryFiles": [
       {
        "Id": "394252076",
        "Language": "SFX",
        "ShortName": "sfx_int_duck_vibration_click_on.wav",
        "Path": "SFX\\sfx_int_duck_vibration_click_on_10C4C929.wem"
       }
      ]
     },
     {
      "Id": "262351497",
      "Name": "Play_sfx_int_duck_vibration_loop",
      "ObjectPath": "\\Events\\DateNight_SFX\\sfx\\sfx_int\\Play_sfx_int_duck_vibration_loop",
      "GUID": "{DBFFAF38-E7C2-4E1C-91D8-21274F0CBDDD}",
      "MaxAttenuation": "100.",
      "DurationType": "Infinite",
      "IncludedMemoryFiles": [
       {
        "Id": "370371142",
        "Language": "SFX",
        "ShortName": "sfx_int_duck_vibration_loop.wav",
        "Path": "SFX\\sfx_int_duck_vibration_loop_EA078C3F.wem"
       }
      ]
     },
     {
      "Id": "1554269881",
      "Name": "Play_sfx_int_dumbbell_fall",
      "ObjectPath": "\\Events\\DateNight_SFX\\sfx\\sfx_int\\Play_sfx_int_dumbbell_fall",
      "GUID": "{A5AF9906-45A7-49E4-B375-E824ABF4D226}",
      "DurationType": "OneShot",
      "DurationMin": "0.662251",
      "DurationMax": "0.662251",
      "IncludedMemoryFiles": [
       {
        "Id": "752321398",
        "Language": "SFX",
        "ShortName": "sfx_int_book_fall_on_floor_heavy_01.wav",
        "Path": "SFX\\sfx_int_book_fall_on_floor_heavy_01_10C4C929.wem"
       }
      ]
     },
     {
      "Id": "1568379754",
      "Name": "Play_sfx_int_exit_door_open",
      "ObjectPath": "\\Events\\DateNight_SFX\\sfx\\sfx_int_doors\\Play_sfx_int_exit_door_open",
      "GUID": "{22F30395-7D40-4110-9F5C-349AB0CF69B6}",
      "DurationType": "OneShot",
      "DurationMin": "0.584167",
      "DurationMax": "0.626333",
      "IncludedMemoryFiles": [
       {
        "Id": "522474428",
        "Language": "SFX",
        "ShortName": "sfx_int_gameroom_door_open_04.wav",
        "Path": "SFX\\sfx_int_gameroom_door_open_04_10C4C929.wem"
       },
       {
        "Id": "634258417",
        "Language": "SFX",
        "ShortName": "sfx_int_gameroom_door_open_03.wav",
        "Path": "SFX\\sfx_int_gameroom_door_open_03_10C4C929.wem"
       },
       {
        "Id": "706023035",
        "Language": "SFX",
        "ShortName": "sfx_int_gameroom_door_open_01.wav",
        "Path": "SFX\\sfx_int_gameroom_door_open_01_10C4C929.wem"
       },
       {
        "Id": "913143714",
        "Language": "SFX",
        "ShortName": "sfx_int_gameroom_door_open_02.wav",
        "Path": "SFX\\sfx_int_gameroom_door_open_02_10C4C929.wem"
       }
      ]
     },
     {
      "Id": "3313655593",
      "Name": "Play_sfx_int_extinguisher_splash",
      "ObjectPath": "\\Events\\DateNight_SFX\\sfx\\sfx_int\\Play_sfx_int_extinguisher_splash",
      "GUID": "{179E7BD6-9422-48E4-B1AC-72A132051450}",
      "DurationType": "OneShot",
      "DurationMin": "0.",
      "DurationMax": "0."
     },
     {
      "Id": "580606040",
      "Name": "Play_sfx_int_gameroom_exit_door_close",
      "ObjectPath": "\\Events\\DateNight_SFX\\sfx\\sfx_int_doors\\Play_sfx_int_gameroom_exit_door_close",
      "GUID": "{7352D75E-F156-406D-B805-9A97BA5F638D}",
      "DurationType": "OneShot",
      "DurationMin": "0.459917",
      "DurationMax": "0.529354",
      "IncludedMemoryFiles": [
       {
        "Id": "269659112",
        "Language": "SFX",
        "ShortName": "sfx_int_gameroom_exit_door_close_02.wav",
        "Path": "SFX\\sfx_int_gameroom_exit_door_close_02_10C4C929.wem"
       },
       {
        "Id": "369993810",
        "Language": "SFX",
        "ShortName": "sfx_int_gameroom_exit_door_close_04.wav",
        "Path": "SFX\\sfx_int_gameroom_exit_door_close_04_10C4C929.wem"
       },
       {
        "Id": "389397495",
        "Language": "SFX",
        "ShortName": "sfx_int_gameroom_exit_door_close_01.wav",
        "Path": "SFX\\sfx_int_gameroom_exit_door_close_01_10C4C929.wem"
       },
       {
        "Id": "603464081",
        "Language": "SFX",
        "ShortName": "sfx_int_gameroom_exit_door_close_03.wav",
        "Path": "SFX\\sfx_int_gameroom_exit_door_close_03_10C4C929.wem"
       },
       {
        "Id": "616986092",
        "Language": "SFX",
        "ShortName": "sfx_int_gameroom_exit_door_close_05.wav",
        "Path": "SFX\\sfx_int_gameroom_exit_door_close_05_10C4C929.wem"
       }
      ]
     },
     {
      "Id": "738240028",
      "Name": "Play_sfx_int_gameroom_exit_door_open",
      "ObjectPath": "\\Events\\DateNight_SFX\\sfx\\sfx_int_doors\\Play_sfx_int_gameroom_exit_door_open",
      "GUID": "{BA0FA33D-DF36-4C0E-845A-B782EB4F3154}",
      "DurationType": "OneShot",
      "DurationMin": "0.637038",
      "DurationMax": "0.683021",
      "IncludedMemoryFiles": [
       {
        "Id": "269659112",
        "Language": "SFX",
        "ShortName": "sfx_int_gameroom_exit_door_close_02.wav",
        "Path": "SFX\\sfx_int_gameroom_exit_door_close_02_10C4C929.wem"
       },
       {
        "Id": "369993810",
        "Language": "SFX",
        "ShortName": "sfx_int_gameroom_exit_door_close_04.wav",
        "Path": "SFX\\sfx_int_gameroom_exit_door_close_04_10C4C929.wem"
       },
       {
        "Id": "389397495",
        "Language": "SFX",
        "ShortName": "sfx_int_gameroom_exit_door_close_01.wav",
        "Path": "SFX\\sfx_int_gameroom_exit_door_close_01_10C4C929.wem"
       },
       {
        "Id": "522474428",
        "Language": "SFX",
        "ShortName": "sfx_int_gameroom_door_open_04.wav",
        "Path": "SFX\\sfx_int_gameroom_door_open_04_10C4C929.wem"
       },
       {
        "Id": "603464081",
        "Language": "SFX",
        "ShortName": "sfx_int_gameroom_exit_door_close_03.wav",
        "Path": "SFX\\sfx_int_gameroom_exit_door_close_03_10C4C929.wem"
       },
       {
        "Id": "616986092",
        "Language": "SFX",
        "ShortName": "sfx_int_gameroom_exit_door_close_05.wav",
        "Path": "SFX\\sfx_int_gameroom_exit_door_close_05_10C4C929.wem"
       },
       {
        "Id": "634258417",
        "Language": "SFX",
        "ShortName": "sfx_int_gameroom_door_open_03.wav",
        "Path": "SFX\\sfx_int_gameroom_door_open_03_10C4C929.wem"
       },
       {
        "Id": "706023035",
        "Language": "SFX",
        "ShortName": "sfx_int_gameroom_door_open_01.wav",
        "Path": "SFX\\sfx_int_gameroom_door_open_01_10C4C929.wem"
       },
       {
        "Id": "913143714",
        "Language": "SFX",
        "ShortName": "sfx_int_gameroom_door_open_02.wav",
        "Path": "SFX\\sfx_int_gameroom_door_open_02_10C4C929.wem"
       }
      ]
     },
     {
      "Id": "3411232499",
      "Name": "Play_sfx_int_jewel_box_held",
      "ObjectPath": "\\Events\\DateNight_SFX\\sfx\\sfx_int\\Play_sfx_int_jewel_box_held",
      "GUID": "{9B1A5212-FDBA-4662-9EB2-BADF248562D4}",
      "DurationType": "OneShot",
      "DurationMin": "0.23075",
      "DurationMax": "0.355646",
      "IncludedMemoryFiles": [
       {
        "Id": "545638694",
        "Language": "SFX",
        "ShortName": "sfx_int_jewel_box_held_04.wav",
        "Path": "SFX\\sfx_int_jewel_box_held_04_10C4C929.wem"
       },
       {
        "Id": "902127590",
        "Language": "SFX",
        "ShortName": "sfx_int_jewel_box_held_01.wav",
        "Path": "SFX\\sfx_int_jewel_box_held_01_10C4C929.wem"
       },
       {
        "Id": "975377920",
        "Language": "SFX",
        "ShortName": "sfx_int_jewel_box_held_02.wav",
        "Path": "SFX\\sfx_int_jewel_box_held_02_10C4C929.wem"
       },
       {
        "Id": "1027591503",
        "Language": "SFX",
        "ShortName": "sfx_int_jewel_box_held_03.wav",
        "Path": "SFX\\sfx_int_jewel_box_held_03_10C4C929.wem"
       }
      ]
     },
     {
      "Id": "4212636704",
      "Name": "Play_sfx_int_jewel_inbox",
      "ObjectPath": "\\Events\\DateNight_SFX\\sfx\\sfx_int\\Play_sfx_int_jewel_inbox",
      "GUID": "{42EA244F-DC9E-4E56-9ED4-3FB0138BEBCE}",
      "DurationType": "OneShot",
      "DurationMin": "0.",
      "DurationMax": "0."
     },
     {
      "Id": "2409652336",
      "Name": "Play_sfx_int_jewel_snap_finger_player",
      "ObjectPath": "\\Events\\DateNight_SFX\\sfx\\sfx_int\\Play_sfx_int_jewel_snap_finger_player",
      "GUID": "{88F267B5-2E77-463A-A92C-693AA3BC7404}",
      "DurationType": "OneShot",
      "DurationMin": "0.",
      "DurationMax": "0."
     },
     {
      "Id": "2250335168",
      "Name": "Play_sfx_int_lamp_off",
      "ObjectPath": "\\Events\\DateNight_SFX\\sfx\\sfx_int\\Play_sfx_int_lamp_off",
      "GUID": "{A92116BC-E697-4EEC-86C9-5F9F14A16811}",
      "DurationType": "OneShot",
      "DurationMin": "0.113458",
      "DurationMax": "0.113458",
      "IncludedMemoryFiles": [
       {
        "Id": "185006709",
        "Language": "SFX",
        "ShortName": "sfx_int_lamp_off.wav",
        "Path": "SFX\\sfx_int_lamp_off_10C4C929.wem"
       }
      ]
     },
     {
      "Id": "735538570",
      "Name": "Play_sfx_int_lamp_on",
      "ObjectPath": "\\Events\\DateNight_SFX\\sfx\\sfx_int\\Play_sfx_int_lamp_on",
      "GUID": "{FA8CEAA5-2D64-448B-9566-EB034F1609A4}",
      "DurationType": "OneShot",
      "DurationMin": "0.055062",
      "DurationMax": "0.055062",
      "IncludedMemoryFiles": [
       {
        "Id": "939188084",
        "Language": "SFX",
        "ShortName": "sfx_int_lamp_on.wav",
        "Path": "SFX\\sfx_int_lamp_on_10C4C929.wem"
       }
      ]
     },
     {
      "Id": "519695663",
      "Name": "Play_sfx_int_pick_extinguisher",
      "ObjectPath": "\\Events\\DateNight_SFX\\sfx\\sfx_int\\Play_sfx_int_pick_extinguisher",
      "GUID": "{68B8ECC5-4230-467E-B39F-E57C8CC64DD1}",
      "DurationType": "OneShot",
      "DurationMin": "0.",
      "DurationMax": "0."
     },
     {
      "Id": "2655549148",
      "Name": "Play_sfx_int_pick_object_basic",
      "ObjectPath": "\\Events\\DateNight_SFX\\sfx\\sfx_int\\Play_sfx_int_pick_object_basic",
      "GUID": "{9E2EA23E-2CEC-44AA-A30E-C56A0A39E09C}",
      "DurationType": "OneShot",
      "DurationMin": "0.009156",
      "DurationMax": "0.009156",
      "IncludedMemoryFiles": [
       {
        "Id": "534358826",
        "Language": "SFX",
        "ShortName": "sfx_int_pick_object_basic.wav",
        "Path": "SFX\\sfx_int_pick_object_basic_10C4C929.wem"
       }
      ]
     },
     {
      "Id": "723885614",
      "Name": "Play_sfx_int_pick_object_plastic",
      "ObjectPath": "\\Events\\DateNight_SFX\\sfx\\sfx_int\\Play_sfx_int_pick_object_plastic",
      "GUID": "{785D9B5A-3F34-4CA3-988B-D890A6AA363D}",
      "DurationType": "OneShot",
      "DurationMin": "0.022492",
      "DurationMax": "0.022492",
      "IncludedMemoryFiles": [
       {
        "Id": "652887826",
        "Language": "SFX",
        "ShortName": "sfx_pick_object_plastic.wav",
        "Path": "SFX\\sfx_pick_object_plastic_39782BF3.wem"
       }
      ]
     },
     {
      "Id": "58348137",
      "Name": "Play_sfx_int_shower_water_flow",
      "ObjectPath": "\\Events\\DateNight_SFX\\sfx\\sfx_int\\Play_sfx_int_shower_water_flow",
      "GUID": "{DFF75D47-E25F-4448-BFE7-71EA522DD282}",
      "DurationType": "OneShot",
      "DurationMin": "0.",
      "DurationMax": "0."
     },
     {
      "Id": "2276686680",
      "Name": "Play_sfx_int_simple_door_close",
      "ObjectPath": "\\Events\\DateNight_SFX\\sfx\\sfx_int_doors\\Play_sfx_int_simple_door_close",
      "GUID": "{D44A4118-F7CB-4B7B-A3AA-DE7C976EE29B}",
      "DurationType": "OneShot",
      "DurationMin": "0.493114",
      "DurationMax": "0.560351",
      "IncludedMemoryFiles": [
       {
        "Id": "307752628",
        "Language": "SFX",
        "ShortName": "sfx_int_gameroom_door_close_01.wav",
        "Path": "SFX\\sfx_int_gameroom_door_close_01_10C4C929.wem"
       },
       {
        "Id": "598373612",
        "Language": "SFX",
        "ShortName": "sfx_int_gameroom_door_close_03.wav",
        "Path": "SFX\\sfx_int_gameroom_door_close_03_10C4C929.wem"
       },
       {
        "Id": "747839084",
        "Language": "SFX",
        "ShortName": "sfx_int_gameroom_door_close_02.wav",
        "Path": "SFX\\sfx_int_gameroom_door_close_02_10C4C929.wem"
       },
       {
        "Id": "1041258676",
        "Language": "SFX",
        "ShortName": "sfx_int_gameroom_door_close_04.wav",
        "Path": "SFX\\sfx_int_gameroom_door_close_04_10C4C929.wem"
       }
      ]
     },
     {
      "Id": "518641436",
      "Name": "Play_sfx_int_simple_door_open",
      "ObjectPath": "\\Events\\DateNight_SFX\\sfx\\sfx_int_doors\\Play_sfx_int_simple_door_open",
      "GUID": "{18A3B4D5-3F88-4F27-903A-9F173F4102D1}",
      "DurationType": "OneShot",
      "DurationMin": "0.43511",
      "DurationMax": "0.466517",
      "IncludedMemoryFiles": [
       {
        "Id": "522474428",
        "Language": "SFX",
        "ShortName": "sfx_int_gameroom_door_open_04.wav",
        "Path": "SFX\\sfx_int_gameroom_door_open_04_10C4C929.wem"
       },
       {
        "Id": "634258417",
        "Language": "SFX",
        "ShortName": "sfx_int_gameroom_door_open_03.wav",
        "Path": "SFX\\sfx_int_gameroom_door_open_03_10C4C929.wem"
       },
       {
        "Id": "706023035",
        "Language": "SFX",
        "ShortName": "sfx_int_gameroom_door_open_01.wav",
        "Path": "SFX\\sfx_int_gameroom_door_open_01_10C4C929.wem"
       },
       {
        "Id": "913143714",
        "Language": "SFX",
        "ShortName": "sfx_int_gameroom_door_open_02.wav",
        "Path": "SFX\\sfx_int_gameroom_door_open_02_10C4C929.wem"
       }
      ]
     },
     {
      "Id": "1519471916",
      "Name": "Play_sfx_int_toilet_flush",
      "ObjectPath": "\\Events\\DateNight_SFX\\sfx\\sfx_int\\Play_sfx_int_toilet_flush",
      "GUID": "{7A559F5D-4199-4AFD-A37E-E62260ECB57B}",
      "DurationType": "OneShot",
      "DurationMin": "0.",
      "DurationMax": "0."
     },
     {
      "Id": "3801058192",
      "Name": "Play_sfx_int_tv_emission",
      "ObjectPath": "\\Events\\DateNight_SFX\\sfx\\sfx_int\\Play_sfx_int_tv_emission",
      "GUID": "{D9A359CE-7A82-4A0A-814C-883AD7651142}",
      "DurationType": "OneShot",
      "DurationMin": "0.",
      "DurationMax": "0."
     },
     {
      "Id": "1494240985",
      "Name": "Play_sfx_int_tv_noise",
      "ObjectPath": "\\Events\\DateNight_SFX\\sfx\\sfx_int\\Play_sfx_int_tv_noise",
      "GUID": "{7C6A5E7E-0654-454E-91CD-29A7A13D4038}",
      "DurationType": "Infinite",
      "IncludedMemoryFiles": [
       {
        "Id": "553884683",
        "Language": "SFX",
        "ShortName": "sfx_tv_noise_static_loop_nosignal.wav",
        "Path": "SFX\\sfx_tv_noise_static_loop_nosignal_358B91B9.wem"
       },
       {
        "Id": "1073208433",
        "Language": "SFX",
        "ShortName": "sfx_tv_noise_static_loop.wav",
        "Path": "SFX\\sfx_tv_noise_static_loop_59C61471.wem"
       }
      ],
      "DefaultSwitchValue": "{0E4B2B79-9076-48D0-86CA-A152B3A572E6}",
      "SwitchContainers": [
       {
        "SwitchValue": "{0E4B2B79-9076-48D0-86CA-A152B3A572E6}",
        "Media": [
         {
          "Id": "1073208433"
         }
        ]
       },
       {
        "SwitchValue": "{745DA37C-D3CB-4517-9E58-73EADD73C116}",
        "Media": [
         {
          "Id": "553884683"
         }
        ]
       }
      ]
     },
     {
      "Id": "2136677172",
      "Name": "Play_sfx_int_tv_off",
      "ObjectPath": "\\Events\\DateNight_SFX\\sfx\\sfx_int\\Play_sfx_int_tv_off",
      "GUID": "{7D9B2282-B4E5-468C-906F-D1383B686A9F}",
      "DurationType": "OneShot",
      "DurationMin": "0.901146",
      "DurationMax": "0.901146",
      "IncludedMemoryFiles": [
       {
        "Id": "286703957",
        "Language": "SFX",
        "ShortName": "sfx_tv_off.wav",
        "Path": "SFX\\sfx_tv_off_10C4C929.wem"
       }
      ]
     },
     {
      "Id": "4016263854",
      "Name": "Play_sfx_int_tv_on",
      "ObjectPath": "\\Events\\DateNight_SFX\\sfx\\sfx_int\\Play_sfx_int_tv_on",
      "GUID": "{5B4F8B4C-92D6-4BEC-8032-FC72C1DA089D}",
      "DurationType": "OneShot",
      "DurationMin": "2.109313",
      "DurationMax": "2.109313",
      "IncludedMemoryFiles": [
       {
        "Id": "622056099",
        "Language": "SFX",
        "ShortName": "sfx_tv_on.wav",
        "Path": "SFX\\sfx_tv_on_10C4C929.wem"
       }
      ]
     },
     {
      "Id": "19004257",
      "Name": "Play_sfx_movement",
      "ObjectPath": "\\Events\\DateNight_SFX\\sfx\\sfx_int\\Play_sfx_movement",
      "GUID": "{DC235D9E-6D36-4526-B9B6-A01B9D4701A1}",
      "MaxAttenuation": "100.",
      "DurationType": "OneShot",
      "DurationMin": "0.",
      "DurationMax": "0.",
      "AuxBusSends": [
       {
        "Id": "1682361562",
        "Name": "rvb_chamber",
        "ObjectPath": "\\Master-Mixer Hierarchy\\DateNight\\Master Audio Bus\\Reverb\\rvb_chamber",
        "GUID": "{92287B53-A87D-4B6B-90BE-DE4133117E31}"
       },
       {
        "Id": "1883919640",
        "Name": "rvb_outdoor",
        "ObjectPath": "\\Master-Mixer Hierarchy\\DateNight\\Master Audio Bus\\Reverb\\rvb_outdoor",
        "GUID": "{14FB2FA9-03FD-47EA-9678-DB353DCBDD5E}"
       }
      ]
     },
     {
      "Id": "1705819274",
      "Name": "Play_sfx_toss_impact_object_balloon",
      "ObjectPath": "\\Events\\DateNight_SFX\\sfx\\sfx_toss_impact\\Play_sfx_toss_impact_object_balloon",
      "GUID": "{5AC2307F-50E2-4EAD-9706-3A9B4BCAC05B}",
      "DurationType": "OneShot",
      "DurationMin": "0.059448",
      "DurationMax": "0.059448",
      "IncludedMemoryFiles": [
       {
        "Id": "207507720",
        "Language": "SFX",
        "ShortName": "sfx_toss_impact_object_balloon.wav",
        "Path": "SFX\\sfx_toss_impact_object_balloon_10C4C929.wem"
       }
      ],
      "AuxBusSends": [
       {
        "Id": "1682361562",
        "Name": "rvb_chamber",
        "ObjectPath": "\\Master-Mixer Hierarchy\\DateNight\\Master Audio Bus\\Reverb\\rvb_chamber",
        "GUID": "{92287B53-A87D-4B6B-90BE-DE4133117E31}"
       }
      ]
     },
     {
      "Id": "1886563500",
      "Name": "Play_sfx_toss_impact_object_medium",
      "ObjectPath": "\\Events\\DateNight_SFX\\sfx\\sfx_toss_impact\\Play_sfx_toss_impact_object_medium",
      "GUID": "{70D5A8DA-6EE1-49D1-A89C-8DDFF9F8C800}",
      "DurationType": "OneShot",
      "DurationMin": "0.053146",
      "DurationMax": "0.053146",
      "IncludedMemoryFiles": [
       {
        "Id": "564881195",
        "Language": "SFX",
        "ShortName": "sfx_toss_impact_object_medium.wav",
        "Path": "SFX\\sfx_toss_impact_object_medium_10C4C929.wem"
       }
      ],
      "AuxBusSends": [
       {
        "Id": "1682361562",
        "Name": "rvb_chamber",
        "ObjectPath": "\\Master-Mixer Hierarchy\\DateNight\\Master Audio Bus\\Reverb\\rvb_chamber",
        "GUID": "{92287B53-A87D-4B6B-90BE-DE4133117E31}"
       }
      ]
     },
     {
      "Id": "2992695972",
      "Name": "Play_sfx_toss_impact_object_slight",
      "ObjectPath": "\\Events\\DateNight_SFX\\sfx\\sfx_toss_impact\\Play_sfx_toss_impact_object_slight",
      "GUID": "{62E457F8-26A6-43E3-9C05-76C246E5686B}",
      "DurationType": "OneShot",
      "DurationMin": "0.018396",
      "DurationMax": "0.018396",
      "IncludedMemoryFiles": [
       {
        "Id": "282324138",
        "Language": "SFX",
        "ShortName": "sfx_toss_impact_object_slight.wav",
        "Path": "SFX\\sfx_toss_impact_object_slight_10C4C929.wem"
       }
      ],
      "AuxBusSends": [
       {
        "Id": "1682361562",
        "Name": "rvb_chamber",
        "ObjectPath": "\\Master-Mixer Hierarchy\\DateNight\\Master Audio Bus\\Reverb\\rvb_chamber",
        "GUID": "{92287B53-A87D-4B6B-90BE-DE4133117E31}"
       }
      ]
     },
     {
      "Id": "1138358578",
      "Name": "Play_sfx_toss_impact_object_solid",
      "ObjectPath": "\\Events\\DateNight_SFX\\sfx\\sfx_toss_impact\\Play_sfx_toss_impact_object_solid",
      "GUID": "{CF4A8E81-94A2-4FE7-9795-4A1F243EEA15}",
      "DurationType": "OneShot",
      "DurationMin": "0.081656",
      "DurationMax": "0.081656",
      "IncludedMemoryFiles": [
       {
        "Id": "648828428",
        "Language": "SFX",
        "ShortName": "sfx_toss_impact_object_solid.wav",
        "Path": "SFX\\sfx_toss_impact_object_solid_10C4C929.wem"
       }
      ],
      "AuxBusSends": [
       {
        "Id": "1682361562",
        "Name": "rvb_chamber",
        "ObjectPath": "\\Master-Mixer Hierarchy\\DateNight\\Master Audio Bus\\Reverb\\rvb_chamber",
        "GUID": "{92287B53-A87D-4B6B-90BE-DE4133117E31}"
       }
      ]
     },
     {
      "Id": "3584639996",
      "Name": "Play_sfx_wheelchair_roll",
      "ObjectPath": "\\Events\\DateNight_SFX\\sfx\\sfx_wheelchair\\Play_sfx_wheelchair_roll",
      "GUID": "{A1E032BD-2D0C-4BBB-84B1-97DE5E5091E2}",
      "DurationType": "OneShot",
      "DurationMin": "0.719412",
      "DurationMax": "0.986238",
      "IncludedMemoryFiles": [
       {
        "Id": "62161072",
        "Language": "SFX",
        "ShortName": "sfx_metal_rattle_02.wav",
        "Path": "SFX\\sfx_metal_rattle_02_10C4C929.wem"
       },
       {
        "Id": "78421899",
        "Language": "SFX",
        "ShortName": "sfx_hands_grabbing_up_move_02.wav",
        "Path": "SFX\\sfx_hands_grabbing_up_move_02_10C4C929.wem"
       },
       {
        "Id": "86730265",
        "Language": "SFX",
        "ShortName": "sfx_wheel_ride_move_up_03.wav",
        "Path": "SFX\\sfx_wheel_ride_move_up_03_10C4C929.wem"
       },
       {
        "Id": "93078340",
        "Language": "SFX",
        "ShortName": "sfx_hands_grabbing_up_move_04.wav",
        "Path": "SFX\\sfx_hands_grabbing_up_move_04_10C4C929.wem"
       },
       {
        "Id": "142669201",
        "Language": "SFX",
        "ShortName": "sfx_metal_rattle_03.wav",
        "Path": "SFX\\sfx_metal_rattle_03_10C4C929.wem"
       },
       {
        "Id": "201635300",
        "Language": "SFX",
        "ShortName": "sfx_wheel_ride_moving_surface_04 .wav",
        "Path": "SFX\\sfx_wheel_ride_moving_surface_04 _10C4C929.wem"
       },
       {
        "Id": "336954914",
        "Language": "SFX",
        "ShortName": "sfx_wheel_plastic_squeaks_03.wav",
        "Path": "SFX\\sfx_wheel_plastic_squeaks_03_10C4C929.wem"
       },
       {
        "Id": "347875606",
        "Language": "SFX",
        "ShortName": "sfx_hands_grabbing_up_move_03.wav",
        "Path": "SFX\\sfx_hands_grabbing_up_move_03_10C4C929.wem"
       },
       {
        "Id": "351139220",
        "Language": "SFX",
        "ShortName": "sfx_wheel_ride_moving_surface_05 .wav",
        "Path": "SFX\\sfx_wheel_ride_moving_surface_05 _10C4C929.wem"
       },
       {
        "Id": "409045023",
        "Language": "SFX",
        "ShortName": "sfx_metal_rattle_01.wav",
        "Path": "SFX\\sfx_metal_rattle_01_10C4C929.wem"
       },
       {
        "Id": "436288394",
        "Language": "SFX",
        "ShortName": "sfx_metal_creak_02.wav",
        "Path": "SFX\\sfx_metal_creak_02_10C4C929.wem"
       },
       {
        "Id": "500128544",
        "Language": "SFX",
        "ShortName": "sfx_hands_grabbing_up_move_01.wav",
        "Path": "SFX\\sfx_hands_grabbing_up_move_01_10C4C929.wem"
       },
       {
        "Id": "511811356",
        "Language": "SFX",
        "ShortName": "sfx_wheel_ride_move_up_01.wav",
        "Path": "SFX\\sfx_wheel_ride_move_up_01_10C4C929.wem"
       },
       {
        "Id": "568201553",
        "Language": "SFX",
        "ShortName": "sfx_wheel_plastic_squeaks_01.wav",
        "Path": "SFX\\sfx_wheel_plastic_squeaks_01_10C4C929.wem"
       },
       {
        "Id": "576299993",
        "Language": "SFX",
        "ShortName": "sfx_wheel_ride_moving_surface_06 .wav",
        "Path": "SFX\\sfx_wheel_ride_moving_surface_06 _10C4C929.wem"
       },
       {
        "Id": "697351456",
        "Language": "SFX",
        "ShortName": "sfx_wheel_ride_move_up_04.wav",
        "Path": "SFX\\sfx_wheel_ride_move_up_04_10C4C929.wem"
       },
       {
        "Id": "812201525",
        "Language": "SFX",
        "ShortName": "sfx_wheel_ride_moving_surface_07 .wav",
        "Path": "SFX\\sfx_wheel_ride_moving_surface_07 _10C4C929.wem"
       },
       {
        "Id": "864884604",
        "Language": "SFX",
        "ShortName": "sfx_metal_rattle_04.wav",
        "Path": "SFX\\sfx_metal_rattle_04_10C4C929.wem"
       },
       {
        "Id": "949237971",
        "Language": "SFX",
        "ShortName": "sfx_metal_creak_01.wav",
        "Path": "SFX\\sfx_metal_creak_01_10C4C929.wem"
       },
       {
        "Id": "965820848",
        "Language": "SFX",
        "ShortName": "sfx_metal_creak_04.wav",
        "Path": "SFX\\sfx_metal_creak_04_10C4C929.wem"
       },
       {
        "Id": "1015318303",
        "Language": "SFX",
        "ShortName": "sfx_wheel_plastic_squeaks_02.wav",
        "Path": "SFX\\sfx_wheel_plastic_squeaks_02_10C4C929.wem"
       },
       {
        "Id": "1026999344",
        "Language": "SFX",
        "ShortName": "sfx_wheel_plastic_squeaks_04.wav",
        "Path": "SFX\\sfx_wheel_plastic_squeaks_04_10C4C929.wem"
       },
       {
        "Id": "1042073024",
        "Language": "SFX",
        "ShortName": "sfx_wheel_ride_move_up_02.wav",
        "Path": "SFX\\sfx_wheel_ride_move_up_02_10C4C929.wem"
       },
       {
        "Id": "1072573925",
        "Language": "SFX",
        "ShortName": "sfx_metal_creak_03.wav",
        "Path": "SFX\\sfx_metal_creak_03_10C4C929.wem"
       }
      ]
     },
     {
      "Id": "741074560",
      "Name": "Play_sfx_wheelchair_roll_backward",
      "ObjectPath": "\\Events\\DateNight_SFX\\sfx\\sfx_wheelchair\\Play_sfx_wheelchair_roll_backward",
      "GUID": "{71081577-8753-4B3C-92EB-4296E19E9D39}",
      "DurationType": "OneShot",
      "DurationMin": "0.807026",
      "DurationMax": "1.003029",
      "IncludedMemoryFiles": [
       {
        "Id": "62161072",
        "Language": "SFX",
        "ShortName": "sfx_metal_rattle_02.wav",
        "Path": "SFX\\sfx_metal_rattle_02_10C4C929.wem"
       },
       {
        "Id": "78421899",
        "Language": "SFX",
        "ShortName": "sfx_hands_grabbing_up_move_02.wav",
        "Path": "SFX\\sfx_hands_grabbing_up_move_02_10C4C929.wem"
       },
       {
        "Id": "86730265",
        "Language": "SFX",
        "ShortName": "sfx_wheel_ride_move_up_03.wav",
        "Path": "SFX\\sfx_wheel_ride_move_up_03_10C4C929.wem"
       },
       {
        "Id": "93078340",
        "Language": "SFX",
        "ShortName": "sfx_hands_grabbing_up_move_04.wav",
        "Path": "SFX\\sfx_hands_grabbing_up_move_04_10C4C929.wem"
       },
       {
        "Id": "142669201",
        "Language": "SFX",
        "ShortName": "sfx_metal_rattle_03.wav",
        "Path": "SFX\\sfx_metal_rattle_03_10C4C929.wem"
       },
       {
        "Id": "201635300",
        "Language": "SFX",
        "ShortName": "sfx_wheel_ride_moving_surface_04 .wav",
        "Path": "SFX\\sfx_wheel_ride_moving_surface_04 _10C4C929.wem"
       },
       {
        "Id": "336954914",
        "Language": "SFX",
        "ShortName": "sfx_wheel_plastic_squeaks_03.wav",
        "Path": "SFX\\sfx_wheel_plastic_squeaks_03_10C4C929.wem"
       },
       {
        "Id": "347875606",
        "Language": "SFX",
        "ShortName": "sfx_hands_grabbing_up_move_03.wav",
        "Path": "SFX\\sfx_hands_grabbing_up_move_03_10C4C929.wem"
       },
       {
        "Id": "351139220",
        "Language": "SFX",
        "ShortName": "sfx_wheel_ride_moving_surface_05 .wav",
        "Path": "SFX\\sfx_wheel_ride_moving_surface_05 _10C4C929.wem"
       },
       {
        "Id": "409045023",
        "Language": "SFX",
        "ShortName": "sfx_metal_rattle_01.wav",
        "Path": "SFX\\sfx_metal_rattle_01_10C4C929.wem"
       },
       {
        "Id": "436288394",
        "Language": "SFX",
        "ShortName": "sfx_metal_creak_02.wav",
        "Path": "SFX\\sfx_metal_creak_02_10C4C929.wem"
       },
       {
        "Id": "500128544",
        "Language": "SFX",
        "ShortName": "sfx_hands_grabbing_up_move_01.wav",
        "Path": "SFX\\sfx_hands_grabbing_up_move_01_10C4C929.wem"
       },
       {
        "Id": "511811356",
        "Language": "SFX",
        "ShortName": "sfx_wheel_ride_move_up_01.wav",
        "Path": "SFX\\sfx_wheel_ride_move_up_01_10C4C929.wem"
       },
       {
        "Id": "568201553",
        "Language": "SFX",
        "ShortName": "sfx_wheel_plastic_squeaks_01.wav",
        "Path": "SFX\\sfx_wheel_plastic_squeaks_01_10C4C929.wem"
       },
       {
        "Id": "576299993",
        "Language": "SFX",
        "ShortName": "sfx_wheel_ride_moving_surface_06 .wav",
        "Path": "SFX\\sfx_wheel_ride_moving_surface_06 _10C4C929.wem"
       },
       {
        "Id": "697351456",
        "Language": "SFX",
        "ShortName": "sfx_wheel_ride_move_up_04.wav",
        "Path": "SFX\\sfx_wheel_ride_move_up_04_10C4C929.wem"
       },
       {
        "Id": "812201525",
        "Language": "SFX",
        "ShortName": "sfx_wheel_ride_moving_surface_07 .wav",
        "Path": "SFX\\sfx_wheel_ride_moving_surface_07 _10C4C929.wem"
       },
       {
        "Id": "864884604",
        "Language": "SFX",
        "ShortName": "sfx_metal_rattle_04.wav",
        "Path": "SFX\\sfx_metal_rattle_04_10C4C929.wem"
       },
       {
        "Id": "949237971",
        "Language": "SFX",
        "ShortName": "sfx_metal_creak_01.wav",
        "Path": "SFX\\sfx_metal_creak_01_10C4C929.wem"
       },
       {
        "Id": "965820848",
        "Language": "SFX",
        "ShortName": "sfx_metal_creak_04.wav",
        "Path": "SFX\\sfx_metal_creak_04_10C4C929.wem"
       },
       {
        "Id": "1015318303",
        "Language": "SFX",
        "ShortName": "sfx_wheel_plastic_squeaks_02.wav",
        "Path": "SFX\\sfx_wheel_plastic_squeaks_02_10C4C929.wem"
       },
       {
        "Id": "1026999344",
        "Language": "SFX",
        "ShortName": "sfx_wheel_plastic_squeaks_04.wav",
        "Path": "SFX\\sfx_wheel_plastic_squeaks_04_10C4C929.wem"
       },
       {
        "Id": "1042073024",
        "Language": "SFX",
        "ShortName": "sfx_wheel_ride_move_up_02.wav",
        "Path": "SFX\\sfx_wheel_ride_move_up_02_10C4C929.wem"
       },
       {
        "Id": "1072573925",
        "Language": "SFX",
        "ShortName": "sfx_metal_creak_03.wav",
        "Path": "SFX\\sfx_metal_creak_03_10C4C929.wem"
       }
      ]
     },
     {
      "Id": "1497278144",
      "Name": "Play_sfx_wheelchair_turn",
      "ObjectPath": "\\Events\\DateNight_SFX\\sfx\\sfx_wheelchair\\Play_sfx_wheelchair_turn",
      "GUID": "{4A059B4A-7CB4-4507-AC7A-D8AD534FA349}",
      "DurationType": "OneShot",
      "DurationMin": "0.270141",
      "DurationMax": "0.603073",
      "IncludedMemoryFiles": [
       {
        "Id": "200829972",
        "Language": "SFX",
        "ShortName": "sfx_wheel_turn_squeaks_02.wav",
        "Path": "SFX\\sfx_wheel_turn_squeaks_02_10C4C929.wem"
       },
       {
        "Id": "301270451",
        "Language": "SFX",
        "ShortName": "sfx_wheel_turn_squeaks_07.wav",
        "Path": "SFX\\sfx_wheel_turn_squeaks_07_10C4C929.wem"
       },
       {
        "Id": "436288394",
        "Language": "SFX",
        "ShortName": "sfx_metal_creak_02.wav",
        "Path": "SFX\\sfx_metal_creak_02_10C4C929.wem"
       },
       {
        "Id": "499495243",
        "Language": "SFX",
        "ShortName": "sfx_metal_creak_06.wav",
        "Path": "SFX\\sfx_metal_creak_06_10C4C929.wem"
       },
       {
        "Id": "540997674",
        "Language": "SFX",
        "ShortName": "sfx_wheel_turn_squeaks_06.wav",
        "Path": "SFX\\sfx_wheel_turn_squeaks_06_10C4C929.wem"
       },
       {
        "Id": "569741456",
        "Language": "SFX",
        "ShortName": "sfx_wheel_turn_squeaks_03.wav",
        "Path": "SFX\\sfx_wheel_turn_squeaks_03_10C4C929.wem"
       },
       {
        "Id": "614229285",
        "Language": "SFX",
        "ShortName": "sfx_wheel_turn_squeaks_04.wav",
        "Path": "SFX\\sfx_wheel_turn_squeaks_04_10C4C929.wem"
       },
       {
        "Id": "623559565",
        "Language": "SFX",
        "ShortName": "sfx_wheel_turn_squeaks_01.wav",
        "Path": "SFX\\sfx_wheel_turn_squeaks_01_10C4C929.wem"
       },
       {
        "Id": "652789785",
        "Language": "SFX",
        "ShortName": "sfx_wheel_ride_move_up_turn_02.wav",
        "Path": "SFX\\sfx_wheel_ride_move_up_turn_02_10C4C929.wem"
       },
       {
        "Id": "705273917",
        "Language": "SFX",
        "ShortName": "sfx_wheel_ride_move_up_turn_05.wav",
        "Path": "SFX\\sfx_wheel_ride_move_up_turn_05_10C4C929.wem"
       },
       {
        "Id": "808637773",
        "Language": "SFX",
        "ShortName": "sfx_wheel_turn_squeaks_05.wav",
        "Path": "SFX\\sfx_wheel_turn_squeaks_05_10C4C929.wem"
       },
       {
        "Id": "843200584",
        "Language": "SFX",
        "ShortName": "sfx_wheel_ride_move_up_turn_03.wav",
        "Path": "SFX\\sfx_wheel_ride_move_up_turn_03_10C4C929.wem"
       },
       {
        "Id": "892700053",
        "Language": "SFX",
        "ShortName": "sfx_wheel_ride_move_up_turn_07.wav",
        "Path": "SFX\\sfx_wheel_ride_move_up_turn_07_10C4C929.wem"
       },
       {
        "Id": "906281276",
        "Language": "SFX",
        "ShortName": "sfx_metal_creak_05.wav",
        "Path": "SFX\\sfx_metal_creak_05_10C4C929.wem"
       },
       {
        "Id": "921115433",
        "Language": "SFX",
        "ShortName": "sfx_wheel_ride_move_up_turn_06.wav",
        "Path": "SFX\\sfx_wheel_ride_move_up_turn_06_10C4C929.wem"
       },
       {
        "Id": "928478580",
        "Language": "SFX",
        "ShortName": "sfx_metal_creak_07.wav",
        "Path": "SFX\\sfx_metal_creak_07_10C4C929.wem"
       },
       {
        "Id": "949237971",
        "Language": "SFX",
        "ShortName": "sfx_metal_creak_01.wav",
        "Path": "SFX\\sfx_metal_creak_01_10C4C929.wem"
       },
       {
        "Id": "965820848",
        "Language": "SFX",
        "ShortName": "sfx_metal_creak_04.wav",
        "Path": "SFX\\sfx_metal_creak_04_10C4C929.wem"
       },
       {
        "Id": "1034421400",
        "Language": "SFX",
        "ShortName": "sfx_wheel_ride_move_up_turn_04.wav",
        "Path": "SFX\\sfx_wheel_ride_move_up_turn_04_10C4C929.wem"
       },
       {
        "Id": "1049555646",
        "Language": "SFX",
        "ShortName": "sfx_wheel_ride_move_up_turn_01.wav",
        "Path": "SFX\\sfx_wheel_ride_move_up_turn_01_10C4C929.wem"
       },
       {
        "Id": "1072573925",
        "Language": "SFX",
        "ShortName": "sfx_metal_creak_03.wav",
        "Path": "SFX\\sfx_metal_creak_03_10C4C929.wem"
       }
      ]
     },
     {
      "Id": "2276431807",
      "Name": "Play_sfx_wheelchair_wheel_grab",
      "ObjectPath": "\\Events\\DateNight_SFX\\sfx\\sfx_wheelchair\\Play_sfx_wheelchair_wheel_grab",
      "GUID": "{F2A3BA80-9F3B-40A6-95F6-A2416BC93450}",
      "DurationType": "OneShot",
      "DurationMin": "0.143045",
      "DurationMax": "0.377521",
      "IncludedMemoryFiles": [
       {
        "Id": "102928225",
        "Language": "SFX",
        "ShortName": "sfx_wheelchair_grab_03.wav",
        "Path": "SFX\\sfx_wheelchair_grab_03_10C4C929.wem"
       },
       {
        "Id": "128534660",
        "Language": "SFX",
        "ShortName": "sfx_wheelchair_grab_06.wav",
        "Path": "SFX\\sfx_wheelchair_grab_06_10C4C929.wem"
       },
       {
        "Id": "252537499",
        "Language": "SFX",
        "ShortName": "sfx_wheelchair_grab_04.wav",
        "Path": "SFX\\sfx_wheelchair_grab_04_10C4C929.wem"
       },
       {
        "Id": "295981184",
        "Language": "SFX",
        "ShortName": "sfx_wheelchair_grab_07.wav",
        "Path": "SFX\\sfx_wheelchair_grab_07_10C4C929.wem"
       },
       {
        "Id": "371443316",
        "Language": "SFX",
        "ShortName": "sfx_wheelchair_grab_01.wav",
        "Path": "SFX\\sfx_wheelchair_grab_01_10C4C929.wem"
       },
       {
        "Id": "614570968",
        "Language": "SFX",
        "ShortName": "sfx_wheelchair_grab_02.wav",
        "Path": "SFX\\sfx_wheelchair_grab_02_10C4C929.wem"
       },
       {
        "Id": "903253089",
        "Language": "SFX",
        "ShortName": "sfx_wheelchair_grab_05.wav",
        "Path": "SFX\\sfx_wheelchair_grab_05_10C4C929.wem"
       }
      ]
     },
     {
      "Id": "2589173568",
      "Name": "Play_sfx_woosh_hand_toss",
      "ObjectPath": "\\Events\\DateNight_SFX\\sfx\\sfx_player\\Play_sfx_woosh_hand_toss",
      "GUID": "{1CBC48AD-C0FF-44BC-BAF1-65EE773700D1}",
      "MaxAttenuation": "100.",
      "DurationType": "OneShot",
      "DurationMin": "0.068417",
      "DurationMax": "0.068417",
      "IncludedMemoryFiles": [
       {
        "Id": "404107952",
        "Language": "SFX",
        "ShortName": "sfx_woosh_hand_toss_02.wav",
        "Path": "SFX\\sfx_woosh_hand_toss_02_10C4C929.wem"
       },
       {
        "Id": "634888145",
        "Language": "SFX",
        "ShortName": "sfx_woosh_hand_toss_03.wav",
        "Path": "SFX\\sfx_woosh_hand_toss_03_10C4C929.wem"
       },
       {
        "Id": "906199235",
        "Language": "SFX",
        "ShortName": "sfx_woosh_hand_toss_04.wav",
        "Path": "SFX\\sfx_woosh_hand_toss_04_10C4C929.wem"
       },
       {
        "Id": "1066555269",
        "Language": "SFX",
        "ShortName": "sfx_woosh_hand_toss_01.wav",
        "Path": "SFX\\sfx_woosh_hand_toss_01_10C4C929.wem"
       }
      ],
      "AuxBusSends": [
       {
        "Id": "1682361562",
        "Name": "rvb_chamber",
        "ObjectPath": "\\Master-Mixer Hierarchy\\DateNight\\Master Audio Bus\\Reverb\\rvb_chamber",
        "GUID": "{92287B53-A87D-4B6B-90BE-DE4133117E31}"
       },
       {
        "Id": "1883919640",
        "Name": "rvb_outdoor",
        "ObjectPath": "\\Master-Mixer Hierarchy\\DateNight\\Master Audio Bus\\Reverb\\rvb_outdoor",
        "GUID": "{14FB2FA9-03FD-47EA-9678-DB353DCBDD5E}"
       }
      ]
     },
     {
      "Id": "1614015457",
      "Name": "Play_ui_menu_button_back",
      "ObjectPath": "\\Events\\DateNight_SFX\\ui\\Play_ui_menu_button_back",
      "GUID": "{69C7F63A-1695-47BE-A6A4-BC0D270271D8}",
      "DurationType": "OneShot",
      "DurationMin": "0.593781",
      "DurationMax": "0.593781",
      "IncludedMemoryFiles": [
       {
        "Id": "7163717",
        "Language": "SFX",
        "ShortName": "ui_menu_button_back.wav",
        "Path": "SFX\\ui_menu_button_back_10C4C929.wem"
       }
      ]
     },
     {
      "Id": "2301910688",
      "Name": "Play_ui_menu_button_click",
      "ObjectPath": "\\Events\\DateNight_SFX\\ui\\Play_ui_menu_button_click",
      "GUID": "{6C47C382-DEB4-42ED-BFDC-B0E089170A62}",
      "DurationType": "OneShot",
      "DurationMin": "0.127479",
      "DurationMax": "0.127479",
      "IncludedMemoryFiles": [
       {
        "Id": "231880446",
        "Language": "SFX",
        "ShortName": "ui_menu_button_click.wav",
        "Path": "SFX\\ui_menu_button_click_10C4C929.wem"
       }
      ]
     },
     {
      "Id": "1883557774",
      "Name": "Play_ui_menu_button_hover",
      "ObjectPath": "\\Events\\DateNight_SFX\\ui\\Play_ui_menu_button_hover",
      "GUID": "{0CEA0602-0120-4619-A684-6182C2BACC37}",
      "DurationType": "OneShot",
      "DurationMin": "0.040042",
      "DurationMax": "0.040042",
      "IncludedMemoryFiles": [
       {
        "Id": "999656632",
        "Language": "SFX",
        "ShortName": "ui_menu_button_hover.wav",
        "Path": "SFX\\ui_menu_button_hover_10C4C929.wem"
       }
      ]
     },
     {
      "Id": "1996915587",
      "Name": "Play_ui_tindold_app_starting_opening",
      "ObjectPath": "\\Events\\DateNight_SFX\\ui\\Play_ui_tindold_app_starting_opening",
      "GUID": "{F0E91B95-5F04-4A0E-831D-DD24F5414951}",
      "DurationType": "OneShot",
      "DurationMin": "3.108792",
      "DurationMax": "3.108792",
      "IncludedMemoryFiles": [
       {
        "Id": "168398543",
        "Language": "SFX",
        "ShortName": "ui_tindold_app_starting_opening.wav",
        "Path": "SFX\\ui_tindold_app_starting_opening_10C4C929.wem"
       }
      ]
     },
     {
      "Id": "2388394475",
      "Name": "Play_ui_tindold_button_click",
      "ObjectPath": "\\Events\\DateNight_SFX\\ui\\Play_ui_tindold_button_click",
      "GUID": "{EDA627F1-52EF-419C-B08B-F6975F790738}",
      "DurationType": "OneShot",
      "DurationMin": "0.127479",
      "DurationMax": "0.127479",
      "IncludedMemoryFiles": [
       {
        "Id": "231880446",
        "Language": "SFX",
        "ShortName": "ui_menu_button_click.wav",
        "Path": "SFX\\ui_menu_button_click_10C4C929.wem"
       }
      ]
     },
     {
      "Id": "4191105558",
      "Name": "Play_ui_tindold_button_crushing",
      "ObjectPath": "\\Events\\DateNight_SFX\\ui\\Play_ui_tindold_button_crushing",
      "GUID": "{5982DB0E-C091-4962-BD32-ABC86D97F759}",
      "DurationType": "OneShot",
      "DurationMin": "0.371521",
      "DurationMax": "0.371521",
      "IncludedMemoryFiles": [
       {
        "Id": "882233376",
        "Language": "SFX",
        "ShortName": "ui_tindold_button_crushing.wav",
        "Path": "SFX\\ui_tindold_button_crushing_10C4C929.wem"
       }
      ]
     },
     {
      "Id": "906599893",
      "Name": "Play_ui_tindold_button_hover",
      "ObjectPath": "\\Events\\DateNight_SFX\\ui\\Play_ui_tindold_button_hover",
      "GUID": "{C5F29B0F-3775-4501-9CB6-F2E41C0825FA}",
      "DurationType": "OneShot",
      "DurationMin": "0.040042",
      "DurationMax": "0.040042",
      "IncludedMemoryFiles": [
       {
        "Id": "999656632",
        "Language": "SFX",
        "ShortName": "ui_menu_button_hover.wav",
        "Path": "SFX\\ui_menu_button_hover_10C4C929.wem"
       }
      ]
     },
     {
      "Id": "1128567860",
      "Name": "Play_ui_tindold_button_not_crushing",
      "ObjectPath": "\\Events\\DateNight_SFX\\ui\\Play_ui_tindold_button_not_crushing",
      "GUID": "{6559E3D9-F0C4-4FEF-8625-D72E61D7EAD8}",
      "DurationType": "OneShot",
      "DurationMin": "0.593781",
      "DurationMax": "0.593781",
      "IncludedMemoryFiles": [
       {
        "Id": "7163717",
        "Language": "SFX",
        "ShortName": "ui_menu_button_back.wav",
        "Path": "SFX\\ui_menu_button_back_10C4C929.wem"
       }
      ]
     },
     {
      "Id": "945137512",
      "Name": "Play_ui_tindold_swipe",
      "ObjectPath": "\\Events\\DateNight_SFX\\ui\\Play_ui_tindold_swipe",
      "GUID": "{2C9B4C52-F13A-414E-A385-142861976518}",
      "DurationType": "OneShot",
      "DurationMin": "0.112625",
      "DurationMax": "0.112625",
      "IncludedMemoryFiles": [
       {
        "Id": "936551943",
        "Language": "SFX",
        "ShortName": "ui_tindold_button_swipe.wav",
        "Path": "SFX\\ui_tindold_button_swipe_10C4C929.wem"
       }
      ]
     },
     {
      "Id": "2600264923",
      "Name": "Play_voice_ash_alerte",
      "ObjectPath": "\\Events\\Default Work Unit\\Play_voice_ash_alerte",
      "GUID": "{BD801B27-FC21-41D0-8139-D08356211F57}",
      "MaxAttenuation": "100.",
      "DurationType": "OneShot",
      "DurationMin": "0.",
      "DurationMax": "0.",
      "AuxBusSends": [
       {
        "Id": "1682361562",
        "Name": "rvb_chamber",
        "ObjectPath": "\\Master-Mixer Hierarchy\\DateNight\\Master Audio Bus\\Reverb\\rvb_chamber",
        "GUID": "{92287B53-A87D-4B6B-90BE-DE4133117E31}"
       },
       {
        "Id": "1883919640",
        "Name": "rvb_outdoor",
        "ObjectPath": "\\Master-Mixer Hierarchy\\DateNight\\Master Audio Bus\\Reverb\\rvb_outdoor",
        "GUID": "{14FB2FA9-03FD-47EA-9678-DB353DCBDD5E}"
       }
      ]
     },
     {
      "Id": "2034014333",
      "Name": "Play_voice_ash_catch",
      "ObjectPath": "\\Events\\Default Work Unit\\Play_voice_ash_catch",
      "GUID": "{504E2E85-EF21-4488-B01A-8436238EE113}",
      "MaxAttenuation": "100.",
      "DurationType": "OneShot",
      "DurationMin": "0.",
      "DurationMax": "0.",
      "AuxBusSends": [
       {
        "Id": "1682361562",
        "Name": "rvb_chamber",
        "ObjectPath": "\\Master-Mixer Hierarchy\\DateNight\\Master Audio Bus\\Reverb\\rvb_chamber",
        "GUID": "{92287B53-A87D-4B6B-90BE-DE4133117E31}"
       },
       {
        "Id": "1883919640",
        "Name": "rvb_outdoor",
        "ObjectPath": "\\Master-Mixer Hierarchy\\DateNight\\Master Audio Bus\\Reverb\\rvb_outdoor",
        "GUID": "{14FB2FA9-03FD-47EA-9678-DB353DCBDD5E}"
       }
      ]
     },
     {
      "Id": "1857639658",
      "Name": "Play_voice_ash_chase",
      "ObjectPath": "\\Events\\Default Work Unit\\Play_voice_ash_chase",
      "GUID": "{8859DF2B-73E2-46C1-8732-B56B7713C232}",
      "MaxAttenuation": "100.",
      "DurationType": "OneShot",
      "DurationMin": "0.",
      "DurationMax": "0.",
      "AuxBusSends": [
       {
        "Id": "1682361562",
        "Name": "rvb_chamber",
        "ObjectPath": "\\Master-Mixer Hierarchy\\DateNight\\Master Audio Bus\\Reverb\\rvb_chamber",
        "GUID": "{92287B53-A87D-4B6B-90BE-DE4133117E31}"
       },
       {
        "Id": "1883919640",
        "Name": "rvb_outdoor",
        "ObjectPath": "\\Master-Mixer Hierarchy\\DateNight\\Master Audio Bus\\Reverb\\rvb_outdoor",
        "GUID": "{14FB2FA9-03FD-47EA-9678-DB353DCBDD5E}"
       }
      ]
     },
     {
      "Id": "1957295185",
      "Name": "Play_voice_ash_surprise",
      "ObjectPath": "\\Events\\Default Work Unit\\Play_voice_ash_surprise",
      "GUID": "{E029F927-6D82-4D52-A5A5-EDD1793C894F}",
      "MaxAttenuation": "100.",
      "DurationType": "OneShot",
      "DurationMin": "0.",
      "DurationMax": "0.",
      "AuxBusSends": [
       {
        "Id": "1682361562",
        "Name": "rvb_chamber",
        "ObjectPath": "\\Master-Mixer Hierarchy\\DateNight\\Master Audio Bus\\Reverb\\rvb_chamber",
        "GUID": "{92287B53-A87D-4B6B-90BE-DE4133117E31}"
       },
       {
        "Id": "1883919640",
        "Name": "rvb_outdoor",
        "ObjectPath": "\\Master-Mixer Hierarchy\\DateNight\\Master Audio Bus\\Reverb\\rvb_outdoor",
        "GUID": "{14FB2FA9-03FD-47EA-9678-DB353DCBDD5E}"
       }
      ]
     },
     {
      "Id": "862924974",
      "Name": "Play_voice_grandma_victory",
      "ObjectPath": "\\Events\\Default Work Unit\\Play_voice_grandma_victory",
      "GUID": "{FECB48E3-B5E3-4BE3-982B-3160FC69F3D9}",
      "DurationType": "OneShot",
      "DurationMin": "0.",
      "DurationMax": "0."
     },
     {
      "Id": "3679762312",
      "Name": "Resume_All",
      "ObjectPath": "\\Events\\DateNight_SFX\\Resume_All",
      "GUID": "{50F69709-E993-4F1B-A3A4-897584CA1A2A}",
      "MaxAttenuation": "0.",
      "DurationType": "OneShot",
      "DurationMin": "0.",
      "DurationMax": "0."
     },
     {
      "Id": "1145865760",
      "Name": "Set_switch_surface_01",
      "ObjectPath": "\\Events\\DateNight_Parameters\\SWITCH\\Switch_Surface\\Set_switch_surface_01",
      "GUID": "{A6DFF446-A80B-4F9A-AB58-D3B5382EFCFB}",
      "MaxAttenuation": "0.",
      "DurationType": "OneShot",
      "DurationMin": "0.",
      "DurationMax": "0."
     },
     {
      "Id": "1145865763",
      "Name": "Set_switch_surface_02",
      "ObjectPath": "\\Events\\DateNight_Parameters\\SWITCH\\Switch_Surface\\Set_switch_surface_02",
      "GUID": "{87204AB7-4430-4CCE-B361-D77D6B131BB2}",
      "MaxAttenuation": "0.",
      "DurationType": "OneShot",
      "DurationMin": "0.",
      "DurationMax": "0."
     }
    ],
    "GameParameters": [
     {
      "Id": "2189383914",
      "Name": "RTPC_PlaySpeed",
      "ObjectPath": "\\Game Parameters\\Default Work Unit\\RTPC_PlaySpeed",
      "GUID": "{49C8ABE9-BB86-440E-9B0C-502EE6665662}"
     },
     {
      "Id": "3277326164",
      "Name": "drug_bottle_pill_movement",
      "ObjectPath": "\\Game Parameters\\Default Work Unit\\drug_bottle_pill_movement",
      "GUID": "{F4B9AE5A-E29D-4EB0-B80E-066959E76BEA}"
     }
    ],
    "StateGroups": [
     {
      "Id": "3991942870",
      "Name": "Music",
      "ObjectPath": "\\States\\Default Work Unit\\Music",
      "GUID": "{BB4D2759-A426-4B4B-BA48-7C3759820479}",
      "States": [
       {
        "Id": "748895195",
        "Name": "None",
        "ObjectPath": "\\States\\Default Work Unit\\Music\\None",
        "GUID": "{AC40FECE-1FEC-4EC5-AF4C-94F369EB90B4}"
       },
       {
        "Id": "2675663049",
        "Name": "music_chase",
        "ObjectPath": "\\States\\Default Work Unit\\Music\\music_chase",
        "GUID": "{36833F96-B003-4996-8CD3-B3EC5E51AC88}"
       },
       {
        "Id": "4020650282",
        "Name": "music_endgame",
        "ObjectPath": "\\States\\Default Work Unit\\Music\\music_endgame",
        "GUID": "{A301E26C-EB39-41ED-A8D8-B0A9E34C8BB0}"
       },
       {
        "Id": "733800440",
        "Name": "music_theme",
        "ObjectPath": "\\States\\Default Work Unit\\Music\\music_theme",
        "GUID": "{FE507EE0-0477-4B62-974A-620EFA81189C}"
       },
       {
        "Id": "2637400697",
        "Name": "music_victory",
        "ObjectPath": "\\States\\Default Work Unit\\Music\\music_victory",
        "GUID": "{894404F1-2605-45AC-98AE-D9CC88DA49B7}"
       }
      ]
     }
    ],
    "SwitchGroups": [
     {
      "Id": "1634821240",
      "Name": "sfx_tv_noise",
      "ObjectPath": "\\Switches\\Default Work Unit\\sfx_tv_noise",
      "GUID": "{223F68B4-F37D-4857-B75A-FD7B5D84189A}",
      "Switches": [
       {
        "Id": "888557005",
        "Name": "signal",
        "ObjectPath": "\\Switches\\Default Work Unit\\sfx_tv_noise\\signal",
        "GUID": "{0E4B2B79-9076-48D0-86CA-A152B3A572E6}"
       },
       {
        "Id": "1774699887",
        "Name": "no_signal",
        "ObjectPath": "\\Switches\\Default Work Unit\\sfx_tv_noise\\no_signal",
        "GUID": "{745DA37C-D3CB-4517-9E58-73EADD73C116}"
       }
      ]
     }
    ]
   }
  ]
 }
}