{
    "originalSdkFolder": "C:\\Program Files (x86)\\Audiokinetic\\Wwise 2021.1.9.7847\\SDK",
    "currentVersion": {
        "build": 2389,
        "major": 1,
        "minor": 9,
        "nickname": "",
        "year": 2021
    },
    "installedBundleGroups": [
        {
            "id": "Packages",
            "valueId": "Unity"
        },
        {
            "id": "Packages",
            "valueId": "Extensions"
        },
        {
            "id": "DeploymentPlatforms",
            "valueId": "Android"
        },
        {
            "id": "DeploymentPlatforms",
            "valueId": "Mac"
        },
        {
            "id": "DeploymentPlatforms",
            "valueId": "Windows"
        }
    ]
}